{
	"fi": {
		"categories": {
			"standard": [
				{
					"label": "Yleiset",
					"value": "General"
				}
			],
			"number": [
				{
					"label": "-1234",
					"value": "0"
				},
				{
					"label": "-1234,12",
					"value": "0.00"
				},
				{
					"label": "-1234",
					"value": "0;[RED]-0"
				},
				{
					"label": "-1234,12",
					"value": "0.00;[RED]-0.00"
				},
				{
					"label": "-1 234",
					"value": "#,##0"
				},
				{
					"label": "-1 234,12",
					"value": "#,###.00"
				},
				{
					"label": "-1 234",
					"value": "#,##0;[RED]-#,##0"
				},
				{
					"label": "-1 234,12",
					"value": "#,###.00;[RED]-#,###.00"
				}
			],
			"currency": [
				{
					"label": "-1 234 €",
					"value": "#,##0 [$€-407];-#,##0 [$€-407]"
				},
				{
					"label": "-1 234,12 €",
					"value": "#,##0.00 [$€-407];-#,##0.00 [$€-407]"
				},
				{
					"label": "-1 234 €",
					"value": "#,##0 [$€-407];[RED]-#,##0 [$€-407]"
				},
				{
					"label": "-1 234,12 €",
					"value": "#,##0.00 [$€-407];[RED]-#,##0.00 [$€-407]"
				},
				{
					"label": "($1 234)",
					"value": "[$$-409]#,##0;([$$-409]#,##0)"
				},
				{
					"label": "($1 234,12)",
					"value": "[$$-409]#,##0.00;([$$-409]#,##0.00)"
				},
				{
					"label": "($1 234)",
					"value": "[$$-409]#,##0;[RED]([$$-409]#,##0)"
				},
				{
					"label": "($1 234,12)",
					"value": "[$$-409]#,##0.00;[RED]([$$-409]#,##0.00)"
				},
				{
					"label": "-$1 234",
					"value": "[$$-409]#,##0;-[$$-409]#,##0"
				},
				{
					"label": "-$1 234,12",
					"value": "[$$-409]#,##0.00;-[$$-409]#,##0.00"
				},
				{
					"label": "-$1 234",
					"value": "[$$-409]#,##0;[RED]-[$$-409]#,##0"
				},
				{
					"label": "-$1 234,12",
					"value": "[$$-409]#,##0.00;[RED]-[$$-409]#,##0.00"
				},
				{
					"label": "-£1 234",
					"value": "[$£-809]#,##0;-[$£-809]#,##0"
				},
				{
					"label": "-£1 234,12",
					"value": "[$£-809]#,##0.00;-[$£-809]#,##0.00"
				},
				{
					"label": "-£1 234",
					"value": "[$£-809]#,##0;[RED]-[$£-809]#,##0"
				},
				{
					"label": "-£1 234,12",
					"value": "[$£-809]#,##0.00;[RED]-[$£-809]#,##0.00"
				}
			],
			"time": [
				{
					"label": "1:37 AM",
					"value": "h:mm AM/PM"
				},
				{
					"label": "1:37:46 AM",
					"value": "h:mm:ss AM/PM"
				},
				{
					"label": "2 AM",
					"value": "h AM/PM"
				},
				{
					"label": "37:30:52",
					"value": "[h]:mm:ss"
				}
			],
			"date": [
				{
					"label": "26.elo.13",
					"value": "D.MMM.YY"
				},
				{
					"label": "26.elo",
					"value": "D.MMM"
				},
				{
					"label": "26.08.2013",
					"value": "D.MM.YYYY"
				},
				{
					"label": "26.elo.13",
					"value": "DD.MMM.YY"
				},
				{
					"label": "26. elokuuta 2013",
					"value": "D. MMMM\"ta \"YYYY"
				}
			],
			"datetime": [
				{
					"label": "26.08.13 01:37 PM",
					"value": "D.MM.YY hh:mm AM/PM"
				},
				{
					"label": "26.26.2013 01:37:46",
					"value": "D.MM.YYYY hh:mm:ss"
				}
			],
			"percent": [
				{
					"label": "13%",
					"value": "0%"
				},
				{
					"label": "12,9%",
					"value": "0.0%"
				},
				{
					"label": "12,95%",
					"value": "0.00%"
				},
				{
					"label": "-12,95%",
					"value": "0.00%;[RED]-0.00%"
				}
			],
			"text": [
				{
					"label": "@",
					"value": "@"
				}
			],
			"scientific": [
				{
					"label": "1,23E+03",
					"value": "0.00E+00"
				}
			],
			"fraction": [
				{
					"label": "2 1/3",
					"value": "# ?/?"
				},
				{
					"label": "2 45/86",
					"value": "# ??/??"
				},
				{
					"label": "2 452/864",
					"value": "# ???/???"
				}
			],
			"custom": []
		},
		"builtInFormats": {
			"15": "D.MMM.YY",
			"16": "D.MMM",
			"17": "MMM.YY",
			"18": "h:mm AM/PM",
			"19": "h:mm:ss AM/PM",
			"20": "h:mm",
			"21": "h:mm:ss",
			"22": "M.D.YYYY h:mm",
			"37": "#,##0 €;-#,##0 €",
			"38": "#,##0 €;[RED]-#,##0 €",
			"39": "#,##0.00 €;-#,##0.00 €",
			"40": "#,##0.00 €;[RED]-#,##0.00 €",
			"45": "mm:ss",
			"46": "[h]:mm:ss",
			"47": "mm:ss,0"
		}
	}
}
