{
    "ja": {
        "categories": {
            "standard": [
                {
                    "label": "標準",
                    "value": "General"
                }
            ],
            "number": [
                {
                    "label": "-1234",
                    "value": "0"
                },
                {
                    "label": "-1234.12",
                    "value": "0.00"
                },
                {
                    "label": "-1234",
                    "value": "0;[RED]-0"
                },
                {
                    "label": "-1234.12",
                    "value": "0.00;[RED]-0.00"
                },
                {
                    "label": "-1,234",
                    "value": "#,##0"
                },
                {
                    "label": "-1,234.12",
                    "value": "#,###.00"
                },
                {
                    "label": "-1,234",
                    "value": "#,##0;[RED]-#,##0"
                },
                {
                    "label": "-1,234.12",
                    "value": "#,###.00;[RED]-#,###.00"
                }
            ],
            "currency": [
                {
                    "label": "-￥1,234",
                    "value": "[$￥-411]#,##0;-[$￥-411]#,##0"
                },
                {
                    "label": "-￥1,234",
                    "value": "[$￥-411]#,##0;[RED]-[$￥-411]#,##0"
                },
                {
                    "label": "($1,234)",
                    "value": "[$$-409]#,##0;([$$-409]#,##0)"
                },
                {
                    "label": "($1,234.12)",
                    "value": "[$$-409]#,##0.00;([$$-409]#,##0.00)"
                },
                {
                    "label": "($1,234)",
                    "value": "[$$-409]#,##0;[RED]([$$-409]#,##0)"
                },
                {
                    "label": "($1,234.12)",
                    "value": "[$$-409]#,##0.00;[RED]([$$-409]#,##0.00)"
                },
                {
                    "label": "-$1,234",
                    "value": "[$$-409]#,##0;-[$$-409]#,##0"
                },
                {
                    "label": "-$1,234.12",
                    "value": "[$$-409]#,##0.00;-[$$-409]#,##0.00"
                },
                {
                    "label": "-$1,234",
                    "value": "[$$-409]#,##0;[RED]-[$$-409]#,##0"
                },
                {
                    "label": "-$1,234.12",
                    "value": "[$$-409]#,##0.00;[RED]-[$$-409]#,##0.00"
                },
                {
                    "label": "-1,234 €",
                    "value": "#,##0 [$€-407];-#,##0 [$€-407]"
                },
                {
                    "label": "-1,234.12 €",
                    "value": "#,##0.00 [$€-407];-#,##0.00 [$€-407]"
                },
                {
                    "label": "-1,234 €",
                    "value": "#,##0 [$€-407];[RED]-#,##0 [$€-407]"
                },
                {
                    "label": "-1,234.12 €",
                    "value": "#,##0.00 [$€-407];[RED]-#,##0.00 [$€-407]"
                },
                {
                    "label": "-£1,234",
                    "value": "[$£-809]#,##0;-[$£-809]#,##0"
                },
                {
                    "label": "-£1,234.12",
                    "value": "[$£-809]#,##0.00;-[$£-809]#,##0.00"
                },
                {
                    "label": "-£1,234",
                    "value": "[$£-809]#,##0;[RED]-[$£-809]#,##0"
                },
                {
                    "label": "-£1,234.12",
                    "value": "[$£-809]#,##0.00;[RED]-[$£-809]#,##0.00"
                }
            ],
            "time": [
                {
                    "label": "1:37",
                    "value": "h:mm"
                },
                {
                    "label": "01:37",
                    "value": "hh:mm"
                },
                {
                    "label": "午後 1:37",
                    "value": "AM/PM h:mm"
                },
                {
                    "label": "午後 01:37",
                    "value": "AM/PM hh:mm"
                },
                {
                    "label": "1:37:46",
                    "value": "h:mm:ss"
                },
                {
                    "label": "01:37:46",
                    "value": "hh:mm:ss"
                },
                {
                    "label": "午前 1:37:46",
                    "value": "AM/PM h:mm:ss"
                },
                {
                    "label": "午前 01:37:46",
                    "value": "AM/PM hh:mm:ss"
                },
                {
                    "label": "2 AM",
                    "value": "h AM/PM"
                },
                {
                    "label": "37:30:52",
                    "value": "[h]:mm:ss"
                }
            ],
            "date": [
                {
                    "label": "2013/08/26",
                    "value": "YYYY/MM/DD"
                },
                {
                    "label": "13/08/26",
                    "value": "YY/MM/DD"
                },
                {
                    "label": "13/8/6",
                    "value": "YY/M/D"
                },
                {
                    "label": "2013/8/6",
                    "value": "YYYY/M/D"
                },
                {
                    "label": "13/08/26 (月)",
                    "value": "YY/MM/DD (AAA)"
                },
                {
                    "label": "13/8/6 (火)",
                    "value": "YY/M/D (AAA)"
                },
                {
                    "label": "2013/8/26 (月)",
                    "value": "YYYY/MM/DD (AAA)"
                },
                {
                    "label": "2013-08-26",
                    "value": "YYYY-MM-DD"
                },
                {
                    "label": "2013年8月26日",
                    "value": "YYYY年M月D日"
                },
                {
                    "label": "2013年08月26日",
                    "value": "YYYY年MM月DD日"
                },
                {
                    "label": "2013年8月26日 月曜日",
                    "value": "YYYY年M月D日（AAAA）"
                },
                {
                    "label": "2013年08月26日 月曜日",
                    "value": "YYYY年MM月DD日（AAAA）"
                }
            ],
            "datetime": [
                {
                    "label": "13/08/26 13:37",
                    "value": "YY/MM/DD h:mm"
                },
                {
                    "label": "2013/08/26 13:37:46",
                    "value": "YYYY/MM/DD h:mm:ss"
                }
            ],
            "percent": [
                {
                    "label": "13%",
                    "value": "0%"
                },
                {
                    "label": "12.9%",
                    "value": "0.0%"
                },
                {
                    "label": "12.95%",
                    "value": "0.00%"
                },
                {
                    "label": "-12.95%",
                    "value": "0.00%;[RED]-0.00%"
                }
            ],
            "text": [
                {
                    "label": "@",
                    "value": "@"
                }
            ],
            "scientific": [
                {
                    "label": "1,23E+03",
                    "value": "0,00E+00"
                }
            ],
            "fraction": [
                {
                    "label": "2 1/3",
                    "value": "# ?/?"
                },
                {
                    "label": "2 45/86",
                    "value": "# ??/??"
                },
                {
                    "label": "2 452/864",
                    "value": "# ???/???"
                }
            ],
            "custom": []
        },
        "builtInFormats": {
            "15":"YY年M月D日",
            "16":"M月D日",
            "17":"YY/MM",
            "18":"AM/PM h:mm",
            "19":"AM/PM h:mm:ss",
            "20":"h:mm",
            "21":"hh:mm:ss",
            "22":"YY/MM/DD hh:mm",
            "37":"#,##0",
            "38":"_￥#,##0;[RED]-_￥#,##0",
            "39":"#,##0",
            "40":"_￥#,##0;[RED]-_￥#,##0",
            "45":"mm:ss",
            "46":"[hh]:mm:ss",
            "47":"[hh]:mm:ss.00"
        }
    }
}
