{
    "lv": {
        "categories": {
            "standard": [
                {
                    "label": "Vispārīgi",
                    "value": "General"
                }
            ],
            "number": [
                {
                    "label": "-1234",
                    "value": "0"
                },
                {
                    "label": "-1234,12",
                    "value": "0.00"
                },
                {
                    "label": "-1234",
                    "value": "0;[RED]-0"
                },
                {
                    "label": "-1234,12",
                    "value": "0.00;[RED]-0.00"
                },
                {
                    "label": "-1 234",
                    "value": "# ##0"
                },
                {
                    "label": "-1 234,12",
                    "value": "# ###,00"
                },
                {
                    "label": "-1 234",
                    "value": "# ##0;[RED]-# ##0"
                },
                {
                    "label": "-1 234,12",
                    "value": "# ###.00;[RED]-# ###.00"
                }
            ],
            "currency": [
                {
                    "label": "-1 234 €",
                    "value": "#,##0 [$€-407];-#,##0 [$€-407]"
                },
                {
                    "label": "-1 234,12 €",
                    "value": "#,##0.00 [$€-407];-#,##0.00 [$€-407]"
                },
                {
                    "label": "-1 234 €",
                    "value": "#,##0 [$€-407];[RED]-#,##0 [$€-407]"
                },
                {
                    "label": "-1 234,12 €",
                    "value": "#,##0.00 [$€-407];[RED]-#,##0.00 [$€-407]"
                },
                {
                    "label": "-Ls 1 234",
                    "value": "[$Ls-426] # ##0;[$Ls-426] -# ##0"
                },
                {
                    "label": "-Ls 1 234,12",
                    "value": "[$Ls-426] # ##0.00;[$Ls-426] -# ##0.00"
                },
                {
                    "label": "-Ls 1 234",
                    "value": "[$Ls-426] # ##0;[RED][$Ls-426] -# ##0"
                },
                {
                    "label": "-Ls 1 234,12",
                    "value": "[$Ls-426] # ##0.00;[RED][$Ls-426] -# ##0.00"
                },
                {
                    "label": "($1 234)",
                    "value": "[$$-409]#,##0;([$$-409]#,##0)"
                },
                {
                    "label": "($1 234,12)",
                    "value": "[$$-409]#,##0.00;([$$-409]#,##0.00)"
                },
                {
                    "label": "($1 234)",
                    "value": "[$$-409]#,##0;[RED]([$$-409]#,##0)"
                },
                {
                    "label": "($1 234,12)",
                    "value": "[$$-409]#,##0.00;[RED]([$$-409]#,##0.00)"
                },
                {
                    "label": "-$1 234",
                    "value": "[$$-409]#,##0;-[$$-409]#,##0"
                },
                {
                    "label": "-$1 234,12",
                    "value": "[$$-409]#,##0.00;-[$$-409]#,##0.00"
                },
                {
                    "label": "-$1 234",
                    "value": "[$$-409]#,##0;[RED]-[$$-409]#,##0"
                },
                {
                    "label": "-$1 234,12",
                    "value": "[$$-409]#,##0.00;[RED]-[$$-409]#,##0.00"
                },
                {
                    "label": "-£1 234",
                    "value": "[$£-809]#,##0;-[$£-809]#,##0"
                },
                {
                    "label": "-£1 234,12",
                    "value": "[$£-809]#,##0.00;-[$£-809]#,##0.00"
                },
                {
                    "label": "-£1 234",
                    "value": "[$£-809]#,##0;[RED]-[$£-809]#,##0"
                },
                {
                    "label": "-£1 234,12",
                    "value": "[$£-809]#,##0.00;[RED]-[$£-809]#,##0.00"
                }
            ],
            "time": [
                {
                    "label": "1:37",
                    "value": "h:mm"
                },
                {
                    "label": "01:37",
                    "value": "hh:mm"
                },
                {
                    "label": "1:37:46",
                    "value": "h:mm:ss"
                },
                {
                    "label": "01:37:46",
                    "value": "hh:mm:ss"
                },
                {
                    "label": "2 AM",
                    "value": "h AM/PM"
                },
                {
                    "label": "37:30:52",
                    "value": "[h]:mm:ss"
                }
            ],
            "date": [
                {
                    "label": "2013.08.26",
                    "value": "YYYY.MM.DD."
                },
                {
                    "label": "13.08.26",
                    "value": "YY.MM.DD."
                },
                {
                    "label": "2013-08-26",
                    "value": "YYYY-MM-DD"
                },
                {
                    "label": "‎pirmdiena, ‎2013‎. gada ‎26. ‎augustā",
                    "value": "DDDD, YYYY. \" gada \"D.MMMM"
                }
            ],
            "datetime": [
                {
                    "label": "26.08.13 13:37:46",
                    "value": "DD.MM.YY hh:mm"
                },
                {
                    "label": "26.08.2013 13:37:46",
                    "value": "DD.MM.YYYY hh:mm:ss"
                }
            ],
            "percent": [
                {
                    "label": "13%",
                    "value": "0%"
                },
                {
                    "label": "12,9%",
                    "value": "0.0%"
                },
                {
                    "label": "12,95%",
                    "value": "0.00%"
                },
                {
                    "label": "-12,95%",
                    "value": "0.00%;[RED]-0.00%"
                }
            ],
            "text": [
                {
                    "label": "@",
                    "value": "@"
                }
            ],
            "scientific": [
                {
                    "label": "1,23E+03",
                    "value": "0,00E+00"
                }
            ],
            "fraction": [
                {
                    "label": "2 1/3",
                    "value": "# ?/?"
                },
                {
                    "label": "2 45/86",
                    "value": "# ??/??"
                },
                {
                    "label": "2 452/864",
                    "value": "# ???/???"
                }
            ],
            "custom": []
        },
        "builtInFormats": {
            "15":"D. MMM, YY",
            "16":"MMM DD",
            "17":"MM.YY",
            "18":"hh:mm AM/PM",
            "19":"hh:mm:ss AM/PM",
            "20":"hh:mm",
            "21":"hh:mm:ss",
            "22":"DD.MM.YY hh:mm",
            "37":"#,##0",
            "38":"_L_s #,##0;[RED]_L_s -#,##0",
            "39":"#,##0",
            "40":"_L_s #,##0;[RED]_L_s -#,##0",
            "45":"mm:ss",
            "46":"[hh]:mm:ss",
            "47":"[hh]:mm:ss.00"
        }
    }
}
