{
	"ca": {
		"Master": "Patró",
		"Custom": "Personalitzat",
		"Title Slide": "Diapositiva de títol",
		"Title and Content": "Títol i objectes",
		"Section Header": "Capçalera de la secció",
		"Two Content": "Dos objectes",
		"Title, 2 Content and Text": "Títol, 2 objectes i text",
		"Title Only": "Només títol",
		"Blank": "En blanc",
		"Content with Caption": "Contingut amb llegenda",
		"Picture with Caption": "Imatge amb llegenda",
		"Title and Vertical Text": "Títol i text vertical",
		"Vertical Title and Text": "Títol vertical i text"
	}
}