{
	"da": {
		"Master": "Master",
		"Custom": "Brugerdefineret",
		"Title Slide": "Titelslide",
		"Title and Content": "Titel og indholdsobjekt",
		"Section Header": "Afsnitsoverskrift",
		"Two Content": "To indholdsobjekter",
		"Title, 2 Content and Text": "Titel, to indholdsobjekter og tekst",
		"Title Only": "Kun titel",
		"Blank": "Tom",
		"Content with Caption": "Indhold med billedtekst",
		"Picture with Caption": "Billede med billedtekst",
		"Title and Vertical Text": "Titel og lodret tekst",
		"Vertical Title and Text": "Lodret titel og tekst"
	}
}