{
	"de": {
		"Master": "Master",
		"Custom": "Benutzerdefiniert",
		"Title Slide": "Titelfolie",
		"Title and Content": "Titel und Inhalt",
		"Section Header": "Abschnittsüberschrift",
		"Two Content": "Zwei Inhalte",
		"Title, 2 Content and Text": "Titel, zwei Inhalte und Text",
		"Title Only": "Nur Titel",
		"Blank": "Leer",
		"Content with Caption": "Inhalt mit Beschriftung",
		"Picture with Caption": "Bild mit Beschriftung",
		"Title and Vertical Text": "Titel und vertikaler Text",
		"Vertical Title and Text": "Vertikaler Titel und Text"
	}
}