{
	"fr": {
		"Master": "Principale",
		"Custom": "Personnalisé",
		"Title Slide": "Diapositive de titre",
		"Title and Content": "Titre et contenu",
		"Section Header": "Titre de section",
		"Two Content": "Deux contenus",
		"Title, 2 Content and Text": "Titre. 2 contenus et texte",
		"Title Only": "Titre",
		"Blank": "Vide",
		"Content with Caption": "Contenu avec légende",
		"Picture with Caption": "Image avec légende",
		"Title and Vertical Text": "Titre et texte vertical",
		"Vertical Title and Text": "Titre vertical et texte"
	}
}