{
	"nl": {
		"Master": "Model",
		"Custom": "Aangepast",
		"Title Slide": "Titeldia",
		"Title and Content": "Titel en object",
		"Section Header": "Sectiekop",
		"Two Content": "Inhoud van twee",
		"Title, 2 Content and Text": "Titel, 2 inhoudselementen en tekst",
		"Title Only": "Alleen titel",
		"Blank": "Leeg",
		"Content with Caption": "Inhoud met bijschrift",
		"Picture with Caption": "Afbeelding met bijschrift",
		"Title and Vertical Text": "Titel en verticale tekst",
		"Vertical Title and Text": "Verticale titel en tekst"
	}
}