{
    "sk": {
        "Master": "Predloha",
        "Custom": "Vlastný",
        "Title Slide": "Úvodná snímka",
        "Title and Content": "Nadpis a obsah",
        "Section Header": "Hlavička sekcie",
        "Two Content": "Dva obsahy",
        "Title, 2 Content and Text": "Dva objekty a text",
        "Title Only": "Len nadpis",
        "Blank": "Prázdna",
        "Content with Caption": "Obsah s popisom",
        "Picture with Caption": "Obrázok s popisom",
        "Title and Vertical Text": "Nadpis a zvislý text",
        "Vertical Title and Text": "Zvislý nadpis a text"
    }
}