{
	"ca": {
		"categories": {
			"date": [
				{
					"label": "26/08/2013",
					"value": "DD/MM/YYYY"
				},
				{
					"label": "‎lunes, ‎26‎ de ‎agosto‎ de ‎2013",
					"value": "DDDD, D\" de \"MMMM\" de \"YYYY"
				},
				{
					"label": "26.8.2013",
					"value": "DD.M.YYYY"
				},
				{
					"label": "26‎ ‎agosto‎ de ‎2013",
					"value": "DD MMMM\" de \"YYYY"
				},
				{
					"label": "26-ago.-13",
					"value": "D-MMM.-YY"
				},
				{
					"label": "agosto‎ de ‎2013",
					"value": "MMMM\" de \"YYYY"
				},
				{
					"label": "ago.-13",
					"value": "MMM.-YY"
				},
				{
					"label": "26/08/2013 01:37",
					"value": "DD/MM/YYYY hh:mm"
				},
				{
					"label": "26/08/2013 01:37:46",
					"value": "DD/MM/YYYY hh:mm:ss"
				},
				{
					"label": "13:37",
					"value": "hh:mm"
				},
				{
					"label": "13:37:46",
					"value": "hh:mm:ss"
				},
				{
					"label": "1:37 p.m.",
					"value": "h:mm AM/PM"
				},
				{
					"label": "1:37:46 p.m.",
					"value": "h:mm:ss AM/PM"
				}
			]
		}
	}
}
