{
	"cs": {
		"categories": {
			"date": [
				{
					"label": "13.04.2016",
					"value": "DD.MM.YYYY"
				},
				{
					"label": "strěda 13. dubna 2016",
					"value": "DDDD D.MMMM YYYY"
				},
				{
					"label": "13/04/2016",
					"value": "DD/MM/YYYY"
				},
				{
					"label": "13. dubna 2016",
					"value": "D. MMMM YYYY"
				},
				{
					"label": "13-dub-16",
					"value": "DD-MMM-YY"
				},
				{
					"label": "duben 16",
					"value": "MMMM YY"
				},
				{
					"label": "dub-16",
					"value": "MMM-YY"
				},
				{
					"label": "26.08.2013 01:37",
					"value": "DD.MM.YYYY hh:mm"
				},
				{
					"label": "26.08.2013 01:37:46",
					"value": "DD.MM.YYYY hh:mm:ss"
				},
				{
					"label": "13:37",
					"value": "hh:mm"
				},
				{
					"label": "13:37:46",
					"value": "hh:mm:ss"
				},
				{
					"label": "1:37 odp.",
					"value": "h:mm AM/PM"
				},
				{
					"label": "1:37:46 odp.",
					"value": "h:mm:ss AM/PM"
				}
			]
		}
	}
}
