{
	"hu": {
		"categories": {
			"date": [
				{
					"label": "2013. 08. 26.",
					"value": "YYYY. MM. DD."
				},
				{
					"label": "2013. augusztus 26., kedd",
					"value": "YYYY. MMMM DD., DDDD"
				},
				{
					"label": "’13 aug.",
					"value": "’YY MMM."
				},
				{
					"label": "2013. augusztus 26.",
					"value": "YYYY. MMMM DD."
				},
				{
					"label": "13-aug.-26",
					"value": "YY-MMM.-DD"
				},
				{
					"label": "’13 augusztus",
					"value": "’YY MMMM"
				},
				{
					"label": "aug.-13",
					"value": "MMM.-YY"
				},
				{
					"label": "2013. 08 .26 01:37",
					"value": "YYYY. MM .DD hh:mm"
				},
				{
					"label": "2013. 08 .26 01:37:46",
					"value": "YYYY. MM .DD hh:mm:ss"
				},
				{
					"label": "13:37",
					"value": "hh:mm"
				},
				{
					"label": "13:37:46",
					"value": "hh:mm:ss"
				},
				{
					"label": "du. 1:37",
					"value": "AM/PM h:mm"
				},
				{
					"label": "du. 1:37:46",
					"value": "AM/PM h:mm:ss"
				}
			]
		}
	}
}
