{
	"sv": {
		"categories": {
			"date": [
				{
					"label": "2013-08-26",
					"value": "YYYY-MM-DD"
				},
				{
					"label": "tisdag den 6 augusti 2013",
					"value": "DDDD \"den \"D MMMM YYYY"
				},
				{
					"label": "13-08-26",
					"value": "YY-MM-DD"
				},
				{
					"label": "26 augusti 2013",
					"value": "D MMMM YYYY"
				},
				{
					"label": "26 aug-13",
					"value": "DD MM-YY"
				},
				{
					"label": "augusti 13",
					"value": "MMMM YY"
				},
				{
					"label": "den 6 augusti 2013",
					"value": "\"den \"D MMMM YYYY"
				},
				{
					"label": "2013-08-26 01:37",
					"value": "YYYY-MM-DD hh:mm"
				},
				{
					"label": "13-08-26 1:37",
					"value": "YY-MM-DD h:mm"
				},
				{
					"label": "13:37",
					"value": "hh:mm"
				},
				{
					"label": "13:37:46",
					"value": "hh:mm:ss"
				},
				{
					"label": "1.37 PM",
					"value": "h.mm AM/PM"
				},
				{
					"label": "1.37 PM",
					"value": "h.mm AM/PM"
				}
			]
		}
	}
}
