{
    "zh_CN": {
        "categories": {
            "date": [
                {
                    "label": "2013/8/26",
                    "value": "YYYY/M/DD"
                },
                {
                    "label": "2013年8月26日",
                    "value": "YYYY年M月D日"
                },
                {
                    "label": "2013年8月26日星期二",
                    "value": "YYYY年M月D日DDDD"
                },
                {
                    "label": "2013/08/26",
                    "value": "YYYY/MM/DD"
                },
                {
                    "label": "2013年8月",
                    "value": "YYYY年M月"
                },
                {
                    "label": "26.8.13",
                    "value": "D.M.YY"
                },
                {
                    "label": "2013年8月26日 13時37分",
                    "value": "YYYY年M月D日 hh時mm分"
                },
                {
                    "label": "2013年8月26日 星期二 13時37分46秒",
                    "value": "YYYY年M月D日 DDDD hh時mm分ss秒"
                },
                {
                    "label": "13:37",
                    "value": "hh:mm"
                },
                {
                    "label": "13:37:46",
                    "value": "hh:mm:ss"
                },
                {
                    "label": "下午 1時37分",
                    "value": "AM/PM h時mm分"
                },
                {
                    "label": "下午 1時37分46秒",
                    "value": "AM/PM h時mm分ss秒"
                }
            ]
        }
    },
    "zh_TW": {
        "categories": {
            "date": [
                {
                    "label": "2013/8/26",
                    "value": "YYYY/M/DD"
                },
                {
                    "label": "2013年8月26日",
                    "value": "YYYY年M月D日"
                },
                {
                    "label": "2013年8月26日星期二",
                    "value": "YYYY年M月D日DDDD"
                },
                {
                    "label": "13:37",
                    "value": "hh:mm"
                },
                {
                    "label": "13:37:46",
                    "value": "hh:mm:ss"
                },
                {
                    "label": "1:37 下午",
                    "value": "h:mm AM/PM"
                },
                {
                    "label": "1:37:46 下午",
                    "value": "h:mm:ss AM/PM"
                }
            ]
        }
    }
}
