{
	"ca": {
		"currency": [
			"#,##0 [$€-407];-#,##0 [$€-407]",
			"#,##0.00 [$€-407];-#,##0.00 [$€-407]",
			"#,##0 [$€-407];[RED]-#,##0 [$€-407]",
			"#,##0.00 [$€-407];[RED]-#,##0.00 [$€-407]",
			"[$$-409]#,##0;([$$-409]#,##0)",
			"[$$-409]#,##0.00;([$$-409]#,##0.00)",
			"[$$-409]#,##0;[RED]([$$-409]#,##0)",
			"[$$-409]#,##0.00;[RED]([$$-409]#,##0.00)",
			"[$$-409]#,##0;-[$$-409]#,##0",
			"[$$-409]#,##0.00;-[$$-409]#,##0.00",
			"[$$-409]#,##0;[RED]-[$$-409]#,##0",
			"[$$-409]#,##0.00;[RED]-[$$-409]#,##0.00",
			"[$£-809]#,##0;-[$£-809]#,##0",
			"[$£-809]#,##0.00;-[$£-809]#,##0.00",
			"[$£-809]#,##0;[RED]-[$£-809]#,##0",
			"[$£-809]#,##0.00;[RED]-[$£-809]#,##0.00"
		],
		"time": [
			"h:mm",
			"hh:mm",
			"h:mm:ss",
			"hh:mm:ss",
			"h AM/PM",
			"[h]:mm:ss"
		],
		"date": [
			"DD/MM/YYYY",
			"DD/MM/YY",
			"D/MM/JJ",
			"D/M/YY",
			"DD-MM-YY",
			"DD.MM.YY",
			"YYYY-MM-DD",
			"DD.MMM.YYYY",
			"DDDD, DD\" de \"MMMM\" de \"YYYY",
			"DDDD D\" de \"MMMM\" de \"YYYY",
			"D\" de \"MMMM\" de \"YYYY"
		]
	}
}
