{
    "cs": {
        "currency": [
            "# ##0 [$Kč-405];-# ##0 [$Kč-405]",
            "# ##0.00 [$Kč-405];-# ##0.00 [$Kč-405]",
            "# ##0 [$Kč-405];[RED]-# ##0 [$Kč-405]",
            "# ##0.00 [$Kč-405];[RED]-# ##0.00 [$Kč-405]",
            "#,##0 [$€-407];-#,##0 [$€-407]",
            "#,##0.00 [$€-407];-#,##0.00 [$€-407]",
            "#,##0 [$€-407];[RED]-#,##0 [$€-407]",
            "#,##0.00 [$€-407];[RED]-#,##0.00 [$€-407]",
            "[$$-409]#,##0;([$$-409]#,##0)",
            "[$$-409]#,##0.00;([$$-409]#,##0.00)",
            "[$$-409]#,##0;[RED]([$$-409]#,##0)",
            "[$$-409]#,##0.00;[RED]([$$-409]#,##0.00)",
            "[$$-409]#,##0;-[$$-409]#,##0",
            "[$$-409]#,##0.00;-[$$-409]#,##0.00",
            "[$$-409]#,##0;[RED]-[$$-409]#,##0",
            "[$$-409]#,##0.00;[RED]-[$$-409]#,##0.00",
            "[$£-809]#,##0;-[$£-809]#,##0",
            "[$£-809]#,##0.00;-[$£-809]#,##0.00",
            "[$£-809]#,##0;[RED]-[$£-809]#,##0",
            "[$£-809]#,##0.00;[RED]-[$£-809]#,##0.00"
        ],
        "time": [
            "h:mm",
            "hh:mm",
            "h.mm AM/PM",
            "h.mm",
            "h:mm:ss",
            "hh:mm:ss",
            "h.mm.ss AM/PM",
            "h.mm.ss",
            "h AM/PM",
            "[h]:mm:ss"
        ],
        "date": [
            "D.M.YYYY",
            "D-M-YY",
            "YYYY-MM-DD",
            "YYYY-M-D",
            "YY-M-D",
            "D. MMMM YYYY"
        ]
    }
}
