{
	"hu": {
		"currency": [
			"# ##0 [$Ft-40E];-# ##0 [$Ft-40E]",
			"# ##0.00 [$Ft-40E];-# ##0.00 [$Ft-40E]",
			"# ##0 [$Ft-40E];[RED]-# ##0 [$Ft-40E]",
			"# ##0.00 [$Ft-40E];[RED]-# ##0.00 [$Ft-40E]",
			"#,##0 [$€-407];-#,##0 [$€-407]",
			"#,##0.00 [$€-407];-#,##0.00 [$€-407]",
			"#,##0 [$€-407];[RED]-#,##0 [$€-407]",
			"#,##0.00 [$€-407];[RED]-#,##0.00 [$€-407]",
			"[$$-409]#,##0;([$$-409]#,##0)",
			"[$$-409]#,##0.00;([$$-409]#,##0.00)",
			"[$$-409]#,##0;[RED]([$$-409]#,##0)",
			"[$$-409]#,##0.00;[RED]([$$-409]#,##0.00)",
			"[$$-409]#,##0;-[$$-409]#,##0",
			"[$$-409]#,##0.00;-[$$-409]#,##0.00",
			"[$$-409]#,##0;[RED]-[$$-409]#,##0",
			"[$$-409]#,##0.00;[RED]-[$$-409]#,##0.00",
			"[$£-809]#,##0;-[$£-809]#,##0",
			"[$£-809]#,##0.00;-[$£-809]#,##0.00",
			"[$£-809]#,##0;[RED]-[$£-809]#,##0",
			"[$£-809]#,##0.00;[RED]-[$£-809]#,##0.00"
		],
		"time": [
			"h:mm",
			"hh:mm",
			"h:mm AM/PM",
			"h:mm:ss",
			"hh:mm:ss",
			"h:mm:ss AM/PM",
			"h AM/PM",
			"[h]:mm:ss"
		],
		"date": [
			"YYYY.MM.DD.",
			"YYYY. MM. DD.",
			"YYYY-MM-DD",
			"YY-MM-DD",
			"YYYY. MMMM D."
		]
	}
}
