{
	"daysInFirstWeek": null,
	"weekStart": 1,
	"days": [
		"bazar",
		"bazar ertəsi",
		"çərşənbə axşamı",
		"çərşənbə",
		"cümə axşamı",
		"cümə",
		"şənbə"
	],
	"daysShort": [
		"B.",
		"B.E.",
		"Ç.A.",
		"Ç.",
		"C.A.",
		"C",
		"Ş."
	],
	"daysStandalone": [
		"B.",
		"B.E.",
		"Ç.A.",
		"Ç.",
		"C.A.",
		"C",
		"Ş."
	],
	"months": [
		"yanvar",
		"fevral",
		"mart",
		"aprel",
		"may",
		"iyun",
		"iyul",
		"avqust",
		"sentyabr",
		"oktyabr",
		"noyabr",
		"dekabr"
	],
	"monthsShort": [
		"yan",
		"fev",
		"mar",
		"apr",
		"may",
		"iyn",
		"iyl",
		"avq",
		"sen",
		"okt",
		"noy",
		"dek"
	],
	"formats": {
		"E": "E",
		"yMd": "dd.MM.y",
		"yMEd": "dd.MM.y, E",
		"yMMMd": "d MMM y",
		"yMMMEd": "d MMM y, E",
		"hm": "h:mm a",
		"Hm": "HH:mm",
		"v": "v",
		"Md": "dd.MM",
		"Hmv": "HH:mm v",
		"hmv": "h:mm a v",
		"yMdHm": "dd.MM.y HH:mm",
		"yMdHmv": "dd.MM.y HH:mm v",
		"yMdhm": "dd.MM.y h:mm a",
		"yMdhmv": "dd.MM.y h:mm a v",
		"yMEdHm": "dd.MM.y, E HH:mm",
		"yMEdHmv": "dd.MM.y, E HH:mm v",
		"yMEdhm": "dd.MM.y, E h:mm a",
		"yMEdhmv": "dd.MM.y, E h:mm a v"
	},
	"date": "d MMM y",
	"time": "HH:mm",
	"dateTimeFormat": "%2$s %1$s",
	"intervals": {
		"fallback": "%1$s – %2$s",
		"hm": {
			"a": "h:mm a – h:mm a",
			"h": "h:mm–h:mm a",
			"m": "h:mm–h:mm a"
		},
		"Hm": {
			"h": "HH:mm–HH:mm",
			"m": "HH:mm–HH:mm"
		},
		"hmv": {
			"a": "h:mm a – h:mm a v",
			"h": "h:mm–h:mm a v",
			"m": "h:mm–h:mm a v"
		},
		"Hmv": {
			"h": "HH:mm–HH:mm v",
			"m": "HH:mm–HH:mm v"
		},
		"yMMMd": {
			"d": "y MMM d–d",
			"m": "d MMM y – d MMM",
			"y": "d MMM y – d MMM y"
		},
		"yMMMEd": {
			"d": "d MMM y, E – d MMM, E",
			"m": "d MMM y, E – d MMM, E",
			"y": "d MMM y, E – d MMM y, E"
		}
	},
	"dayPeriods": {
		"am": "AM",
		"pm": "PM"
	},
	"eras": [
		"e.ə.",
		"b.e."
	],
	"dateTime": "d MMM y HH:mm",
	"h12": false
}