{
	"daysInFirstWeek": 4,
	"weekStart": 1,
	"days": [
		"diumenge",
		"dilluns",
		"dimarts",
		"dimecres",
		"dijous",
		"divendres",
		"dissabte"
	],
	"daysShort": [
		"dg.",
		"dl.",
		"dt.",
		"dc.",
		"dj.",
		"dv.",
		"ds."
	],
	"daysStandalone": [
		"dg.",
		"dl.",
		"dm.",
		"dc.",
		"dj.",
		"dv.",
		"ds."
	],
	"months": [
		"gener",
		"febrer",
		"març",
		"abril",
		"maig",
		"juny",
		"juliol",
		"agost",
		"setembre",
		"octubre",
		"novembre",
		"desembre"
	],
	"monthsShort": [
		"gen.",
		"feb.",
		"març",
		"abr.",
		"maig",
		"juny",
		"jul.",
		"ag.",
		"set.",
		"oct.",
		"nov.",
		"des."
	],
	"formats": {
		"E": "E",
		"yMd": "d/M/y",
		"yMEd": "E, d/M/y",
		"yMMMd": "d MMM y",
		"yMMMEd": "E, d MMM, y",
		"hm": "h:mm a",
		"Hm": "HH:mm",
		"v": "v",
		"Md": "d/M",
		"Hmv": "HH:mm v",
		"hmv": "h:mm a v",
		"yMdHm": "d/M/y HH:mm",
		"yMdHmv": "d/M/y HH:mm v",
		"yMdhm": "d/M/y h:mm a",
		"yMdhmv": "d/M/y h:mm a v",
		"yMEdHm": "E, d/M/y HH:mm",
		"yMEdHmv": "E, d/M/y HH:mm v",
		"yMEdhm": "E, d/M/y h:mm a",
		"yMEdhmv": "E, d/M/y h:mm a v"
	},
	"date": "dd/MM/y",
	"time": "H.mm",
	"dateTimeFormat": "%2$s %1$s",
	"intervals": {
		"fallback": "%1$s - %2$s",
		"hm": {
			"a": "h.mm a -h.mm a",
			"h": "h:mm-h:mm a",
			"m": "h:mm-h:mm a"
		},
		"Hm": {
			"h": "HH.mm-HH.mm",
			"m": "HH.mm-HH.mm"
		},
		"hmv": {
			"a": "h:mm a - h:mm a v",
			"h": "h:mm–h:mm a v",
			"m": "h:mm-h:mm a v"
		},
		"Hmv": {
			"h": "HH.mm-HH.mm v",
			"m": "HH.mm-HH.mm v"
		},
		"yMMMd": {
			"d": "d-d MMM 'de' y",
			"m": "d MMM - d MMM 'de' y",
			"y": "d MMM 'de' y - d MMM 'de' y"
		},
		"yMMMEd": {
			"d": "E d - E d MMM 'de' y",
			"m": "E d MMM - E d MMM 'de' y",
			"y": "E d MMM 'de' y - E d MMM 'de' y"
		}
	},
	"dayPeriods": {
		"am": "a. m.",
		"pm": "p. m."
	},
	"eras": [
		"a. de la n. e.",
		"de la n.e."
	],
	"dateTime": "dd/MM/y H.mm",
	"h12": false
}