{
	"daysInFirstWeek": null,
	"days": [
		"Dimingu",
		"Chiposi",
		"Chipiri",
		"Chitatu",
		"Chinai",
		"Chishanu",
		"Sabudu"
	],
	"daysShort": [
		"Dim",
		"Pos",
		"Pir",
		"Tat",
		"Nai",
		"Sha",
		"Sab"
	],
	"daysStandalone": [
		"Dim",
		"Pos",
		"Pir",
		"Tat",
		"Nai",
		"Sha",
		"Sab"
	],
	"months": [
		"Janeiro",
		"Fevreiro",
		"Marco",
		"Abril",
		"Maio",
		"Junho",
		"Julho",
		"Augusto",
		"Setembro",
		"Otubro",
		"Novembro",
		"Decembro"
	],
	"monthsShort": [
		"Jan",
		"Fev",
		"Mar",
		"Abr",
		"Mai",
		"Jun",
		"Jul",
		"Aug",
		"Set",
		"Otu",
		"Nov",
		"Dec"
	],
	"formats": {
		"E": "E",
		"yMd": "y-MM-dd",
		"yMEd": "E, dd/MM/y",
		"yMMMd": "d 'de' MMM 'de' y",
		"yMMMEd": "E, d 'de' MMM 'de' y",
		"hm": "h:mm a",
		"Hm": "H:mm",
		"v": "v",
		"Md": "d/M",
		"Hmv": "H:mm v",
		"hmv": "h:mm a v",
		"yMdHm": "y-MM-dd H:mm",
		"yMdHmv": "y-MM-dd H:mm v",
		"yMdhm": "y-MM-dd h:mm a",
		"yMdhmv": "y-MM-dd h:mm a v",
		"yMEdHm": "E, dd/MM/y H:mm",
		"yMEdHmv": "E, dd/MM/y H:mm v",
		"yMEdhm": "E, dd/MM/y h:mm a",
		"yMEdhmv": "E, dd/MM/y h:mm a v"
	},
	"date": "d 'de' MMM 'de' y",
	"time": "HH:mm",
	"dateTimeFormat": "%2$s %1$s",
	"intervals": {
		"fallback": "%1$s – %2$s",
		"hm": {
			"a": "h:mm a – h:mm a",
			"h": "h:mm–h:mm a",
			"m": "h:mm–h:mm a"
		},
		"Hm": {
			"h": "HH:mm–HH:mm",
			"m": "HH:mm–HH:mm"
		},
		"hmv": {
			"a": "h:mm a – h:mm a v",
			"h": "h:mm–h:mm a v",
			"m": "h:mm–h:mm a v"
		},
		"Hmv": {
			"h": "HH:mm–HH:mm v",
			"m": "HH:mm–HH:mm v"
		},
		"yMMMd": {
			"d": "y MMM d–d",
			"m": "y MMM d – MMM d",
			"y": "y MMM d – y MMM d"
		},
		"yMMMEd": {
			"d": "y MMM d, E – MMM d, E",
			"m": "y MMM d, E – MMM d, E",
			"y": "y MMM d, E – y MMM d, E"
		}
	},
	"dayPeriods": {
		"am": "AM",
		"pm": "PM"
	},
	"eras": [
		"AC",
		"AD"
	],
	"dateTime": "d 'de' MMM 'de' y HH:mm",
	"h12": false
}