{
	"daysInFirstWeek": null,
	"days": [
		"sunnudagur",
		"mánadagur",
		"týsdagur",
		"mikudagur",
		"hósdagur",
		"fríggjadagur",
		"leygardagur"
	],
	"daysShort": [
		"sun",
		"mán",
		"týs",
		"mik",
		"hós",
		"frí",
		"ley"
	],
	"daysStandalone": [
		"su",
		"má",
		"tý",
		"mi",
		"hó",
		"fr",
		"le"
	],
	"months": [
		"januar",
		"februar",
		"mars",
		"apríl",
		"mai",
		"juni",
		"juli",
		"august",
		"september",
		"oktober",
		"november",
		"desember"
	],
	"monthsShort": [
		"jan",
		"feb",
		"mar",
		"apr",
		"mai",
		"jun",
		"jul",
		"aug",
		"sep",
		"okt",
		"nov",
		"des"
	],
	"formats": {
		"E": "E",
		"yMd": "y-MM-dd",
		"yMEd": "E, y-MM-dd",
		"yMMMd": "y MMM d",
		"yMMMEd": "E, y MMM d",
		"hm": "h:mm a",
		"Hm": "HH:mm",
		"v": "v",
		"Md": "M-d",
		"Hmv": "HH:mm v",
		"hmv": "h:mm a v",
		"yMdHm": "y-MM-dd HH:mm",
		"yMdHmv": "y-MM-dd HH:mm v",
		"yMdhm": "y-MM-dd h:mm a",
		"yMdhmv": "y-MM-dd h:mm a v",
		"yMEdHm": "E, y-MM-dd HH:mm",
		"yMEdHmv": "E, y-MM-dd HH:mm v",
		"yMEdhm": "E, y-MM-dd h:mm a",
		"yMEdhmv": "E, y-MM-dd h:mm a v"
	},
	"date": "dd-MM-y",
	"time": "HH:mm",
	"dateTimeFormat": "%2$s %1$s",
	"intervals": {
		"fallback": "%1$s – %2$s",
		"hm": {
			"a": "h:mm a – h:mm a",
			"h": "h:mm–h:mm a",
			"m": "h:mm–h:mm a"
		},
		"Hm": {
			"h": "HH:mm–HH:mm",
			"m": "HH:mm–HH:mm"
		},
		"hmv": {
			"a": "h:mm a – h:mm a v",
			"h": "h:mm–h:mm a v",
			"m": "h:mm–h:mm a v"
		},
		"Hmv": {
			"h": "HH:mm–HH:mm v",
			"m": "HH:mm–HH:mm v"
		},
		"yMMMd": {
			"d": "y-MM-d – d",
			"m": "y-MM-dd – MM-d",
			"y": "y-MM-dd – y-MM-dd"
		},
		"yMMMEd": {
			"d": "E, y-MM-dd – E, y-MM-dd",
			"m": "E, y-MM-dd – E, y-MM-dd",
			"y": "E, y-MM-dd – E, y-MM-dd"
		}
	},
	"dayPeriods": {
		"am": "um fyrrapartur",
		"pm": "um seinnapartur"
	},
	"eras": [
		"f.l.t.",
		"l.t."
	],
	"dateTime": "dd-MM-y HH:mm",
	"h12": false
}