{
	"daysInFirstWeek": null,
	"days": [
		"Jumapilyi",
		"Jumatatuu",
		"Jumanne",
		"Jumatanu",
		"Alhamisi",
		"Ijumaa",
		"Jumamosi"
	],
	"daysShort": [
		"Jpi",
		"Jtt",
		"Jnn",
		"Jtn",
		"Alh",
		"Iju",
		"Jmo"
	],
	"daysStandalone": [
		"Jpi",
		"Jtt",
		"Jnn",
		"Jtn",
		"Alh",
		"Iju",
		"Jmo"
	],
	"months": [
		"Januari",
		"Februari",
		"Machi",
		"Aprilyi",
		"Mei",
		"Junyi",
		"Julyai",
		"Agusti",
		"Septemba",
		"Oktoba",
		"Novemba",
		"Desemba"
	],
	"monthsShort": [
		"Jan",
		"Feb",
		"Mac",
		"Apr",
		"Mei",
		"Jun",
		"Jul",
		"Ago",
		"Sep",
		"Okt",
		"Nov",
		"Des"
	],
	"formats": {
		"E": "E",
		"yMd": "y-MM-dd",
		"yMEd": "E, M/d/y",
		"yMMMd": "y MMM d",
		"yMMMEd": "E, MMM d, y",
		"hm": "h:mm a",
		"Hm": "HH:mm",
		"v": "v",
		"Md": "M/d",
		"Hmv": "HH:mm v",
		"hmv": "h:mm a v",
		"yMdHm": "y-MM-dd HH:mm",
		"yMdHmv": "y-MM-dd HH:mm v",
		"yMdhm": "y-MM-dd h:mm a",
		"yMdhmv": "y-MM-dd h:mm a v",
		"yMEdHm": "E, M/d/y HH:mm",
		"yMEdHmv": "E, M/d/y HH:mm v",
		"yMEdhm": "E, M/d/y h:mm a",
		"yMEdhmv": "E, M/d/y h:mm a v"
	},
	"date": "d MMM y",
	"time": "h:mm a",
	"dateTimeFormat": "%2$s %1$s",
	"intervals": {
		"fallback": "%1$s – %2$s",
		"hm": {
			"a": "h:mm a – h:mm a",
			"h": "h:mm–h:mm a",
			"m": "h:mm–h:mm a"
		},
		"Hm": {
			"h": "HH:mm–HH:mm",
			"m": "HH:mm–HH:mm"
		},
		"hmv": {
			"a": "h:mm a – h:mm a v",
			"h": "h:mm–h:mm a v",
			"m": "h:mm–h:mm a v"
		},
		"Hmv": {
			"h": "HH:mm–HH:mm v",
			"m": "HH:mm–HH:mm v"
		},
		"yMMMd": {
			"d": "y MMM d–d",
			"m": "y MMM d – MMM d",
			"y": "y MMM d – y MMM d"
		},
		"yMMMEd": {
			"d": "y MMM d, E – MMM d, E",
			"m": "y MMM d, E – MMM d, E",
			"y": "y MMM d, E – y MMM d, E"
		}
	},
	"dayPeriods": {
		"am": "utuko",
		"pm": "kyiukonyi"
	},
	"eras": [
		"KK",
		"BK"
	],
	"dateTime": "d MMM y h:mm a",
	"h12": true
}