{
	"daysInFirstWeek": 1,
	"weekStart": 1,
	"days": [
		"Jumapili",
		"Jumatatu",
		"Jumanne",
		"Jumatano",
		"Alhamisi",
		"Ijumaa",
		"Jumamosi"
	],
	"daysShort": [
		"J2",
		"J3",
		"J4",
		"J5",
		"Alh",
		"Ij",
		"J1"
	],
	"daysStandalone": [
		"Jumapili",
		"Jumatatu",
		"Jumanne",
		"Jumatano",
		"Alhamisi",
		"Ijumaa",
		"Jumamosi"
	],
	"months": [
		"Januari",
		"Februari",
		"Machi",
		"Aprili",
		"Mei",
		"Juni",
		"Julai",
		"Agosti",
		"Septemba",
		"Oktoba",
		"Novemba",
		"Desemba"
	],
	"monthsShort": [
		"Jan",
		"Feb",
		"Mac",
		"Apr",
		"Mei",
		"Jun",
		"Jul",
		"Ago",
		"Sep",
		"Okt",
		"Nov",
		"Des"
	],
	"formats": {
		"E": "E",
		"yMd": "d/M/y",
		"yMEd": "E, d/M/y",
		"yMMMd": "d MMM y",
		"yMMMEd": "E, MMM d, y",
		"hm": "h:mm a",
		"Hm": "HH:mm",
		"v": "v",
		"Md": "d-M",
		"Hmv": "HH:mm v",
		"hmv": "h:mm a v",
		"yMdHm": "d/M/y HH:mm",
		"yMdHmv": "d/M/y HH:mm v",
		"yMdhm": "d/M/y h:mm a",
		"yMdhmv": "d/M/y h:mm a v",
		"yMEdHm": "E, d/M/y HH:mm",
		"yMEdHmv": "E, d/M/y HH:mm v",
		"yMEdhm": "E, d/M/y h:mm a",
		"yMEdhmv": "E, d/M/y h:mm a v"
	},
	"date": "d MMM y",
	"time": "h:mm a",
	"dateTimeFormat": "%2$s %1$s",
	"intervals": {
		"fallback": "%1$s – %2$s",
		"hm": {
			"a": "h:mm a – h:mm a",
			"h": "h:mm–h:mm a",
			"m": "h:mm – h:mm a"
		},
		"Hm": {
			"h": "HH:mm - HH:mm",
			"m": "HH:mm – HH:mm"
		},
		"hmv": {
			"a": "h:mm a – h:mm a v",
			"h": "h:mm - h:mm a v",
			"m": "h:mm - h:mm a v"
		},
		"Hmv": {
			"h": "HH:mm – HH:mm v",
			"m": "HH:mm - HH:mm v"
		},
		"yMMMd": {
			"d": "MMM d - d, y",
			"m": "MMM d - d, y",
			"y": "MMM d y - MMM d y"
		},
		"yMMMEd": {
			"d": "E, MMM d - E, MMM d y",
			"m": "E, MMM d- E, MMM d y",
			"y": "E, MMM d y - E, MMM d y"
		}
	},
	"dayPeriods": {
		"am": "AM",
		"pm": "PM"
	},
	"eras": [
		"KK",
		"BK"
	],
	"dateTime": "d MMM y h:mm a",
	"h12": true
}