{
	"daysInFirstWeek": 4,
	"weekStart": 1,
	"days": [
		"sunnudagur",
		"mánudagur",
		"þriðjudagur",
		"miðvikudagur",
		"fimmtudagur",
		"föstudagur",
		"laugardagur"
	],
	"daysShort": [
		"sun.",
		"mán.",
		"þri.",
		"mið.",
		"fim.",
		"fös.",
		"lau."
	],
	"daysStandalone": [
		"su.",
		"má.",
		"þr.",
		"mi.",
		"fi.",
		"fö.",
		"la."
	],
	"months": [
		"janúar",
		"febrúar",
		"mars",
		"apríl",
		"maí",
		"júní",
		"júlí",
		"ágúst",
		"september",
		"október",
		"nóvember",
		"desember"
	],
	"monthsShort": [
		"jan.",
		"feb.",
		"mar.",
		"apr.",
		"maí",
		"jún.",
		"júl.",
		"ágú.",
		"sep.",
		"okt.",
		"nóv.",
		"des."
	],
	"formats": {
		"E": "E",
		"yMd": "d.M.y",
		"yMEd": "E, d.M.y",
		"yMMMd": "d. MMM y",
		"yMMMEd": "E, d. MMM y",
		"hm": "h:mm a",
		"Hm": "HH:mm",
		"v": "v",
		"Md": "d.M.",
		"Hmv": "HH:mm v",
		"hmv": "h:mm a v",
		"yMdHm": "d.M.y, HH:mm",
		"yMdHmv": "d.M.y, HH:mm v",
		"yMdhm": "d.M.y, h:mm a",
		"yMdhmv": "d.M.y, h:mm a v",
		"yMEdHm": "E, d.M.y, HH:mm",
		"yMEdHmv": "E, d.M.y, HH:mm v",
		"yMEdhm": "E, d.M.y, h:mm a",
		"yMEdhmv": "E, d.M.y, h:mm a v"
	},
	"date": "d. MMM y",
	"time": "HH:mm",
	"dateTimeFormat": "%2$s, %1$s",
	"intervals": {
		"fallback": "%1$s – %2$s",
		"hm": {
			"a": "h:mm a – h:mm a",
			"h": "h:mm–h:mm a",
			"m": "h:mm–h:mm a"
		},
		"Hm": {
			"h": "HH:mm–HH:mm",
			"m": "HH:mm–HH:mm"
		},
		"hmv": {
			"a": "h:mm a – h:mm a v",
			"h": "h:mm–h:mm a v",
			"m": "h:mm–h:mm a v"
		},
		"Hmv": {
			"h": "HH:mm–HH:mm v",
			"m": "HH:mm–HH:mm v"
		},
		"yMMMd": {
			"d": "d.–d. MMM y",
			"m": "d. MMM – d. MMM y",
			"y": "d. MMM y – d. MMM y"
		},
		"yMMMEd": {
			"d": "E, d. – E, d. MMM y",
			"m": "E, d. MMM – E, d. MMM y",
			"y": "E, d. MMM y – E, d. MMM y"
		}
	},
	"dayPeriods": {
		"am": "f.h.",
		"pm": "e.h."
	},
	"eras": [
		"f.l.t.",
		"l.t."
	],
	"dateTime": "d. MMM y, HH:mm",
	"h12": false
}