{
	"daysInFirstWeek": 4,
	"weekStart": 1,
	"days": [
		"Sunndaach",
		"Moondaach",
		"Dinnsdaach",
		"Metwoch",
		"Dunnersdaach",
		"Friidaach",
		"Samsdaach"
	],
	"daysShort": [
		"Su.",
		"Mo.",
		"Di.",
		"Me.",
		"Du.",
		"Fr.",
		"Sa."
	],
	"daysStandalone": [
		"Su",
		"Mo",
		"Di",
		"Me",
		"Du",
		"Fr",
		"Sa"
	],
	"months": [
		"Jannewa",
		"Fäbrowa",
		"Määz",
		"Aprell",
		"Mäi",
		"Juuni",
		"Juuli",
		"Oujoß",
		"Septämber",
		"Oktoober",
		"Novämber",
		"Dezämber"
	],
	"monthsShort": [
		"Jan",
		"Fäb",
		"Mäz",
		"Apr",
		"Mäi",
		"Jun",
		"Jul",
		"Ouj",
		"Säp",
		"Okt",
		"Nov",
		"Dez"
	],
	"formats": {
		"E": "E",
		"yMd": "y-MM-dd",
		"yMEd": "E y-MM-dd",
		"yMMMd": "d. MMM. y",
		"yMMMEd": "E d. MMM. y",
		"hm": "h:mm a",
		"Hm": "H:mm",
		"v": "v",
		"Md": "MM-dd",
		"Hmv": "H:mm v",
		"hmv": "h:mm a v",
		"yMdHm": "y-MM-dd H:mm",
		"yMdHmv": "y-MM-dd H:mm v",
		"yMdhm": "y-MM-dd h:mm a",
		"yMdhmv": "y-MM-dd h:mm a v",
		"yMEdHm": "E y-MM-dd H:mm",
		"yMEdHmv": "E y-MM-dd H:mm v",
		"yMEdhm": "E y-MM-dd h:mm a",
		"yMEdhmv": "E y-MM-dd h:mm a v"
	},
	"date": "d. MMM. y",
	"time": "HH:mm",
	"dateTimeFormat": "%2$s %1$s",
	"intervals": {
		"fallback": "%1$s – %2$s",
		"hm": {
			"a": "h:mm a – h:mm a",
			"h": "h:mm–h:mm a",
			"m": "h:mm–h:mm a"
		},
		"Hm": {
			"h": "HH:mm–HH:mm",
			"m": "HH:mm–HH:mm"
		},
		"hmv": {
			"a": "h:mm a – h:mm a v",
			"h": "h:mm–h:mm a v",
			"m": "h:mm–h:mm a v"
		},
		"Hmv": {
			"h": "HH:mm–HH:mm v",
			"m": "HH:mm–HH:mm v"
		},
		"yMMMd": {
			"d": "y MMM d–d",
			"m": "y MMM d – MMM d",
			"y": "y MMM d – y MMM d"
		},
		"yMMMEd": {
			"d": "E y-MM-dd – E y-MM-dd",
			"m": "E y-MM-dd – E y-MM-dd",
			"y": "E y-MM-dd – E y-MM-dd"
		}
	},
	"dayPeriods": {
		"am": "Uhr vörmiddaachs",
		"pm": "Uhr nommendaachs"
	},
	"eras": [
		"v. d. Z.",
		"d. Z."
	],
	"dateTime": "d. MMM. y HH:mm",
	"h12": false
}