{
	"daysInFirstWeek": 4,
	"weekStart": 1,
	"days": [
		"pühapäev",
		"esmaspäev",
		"teisipäev",
		"kolmapäev",
		"neljapäev",
		"reede",
		"laupäev"
	],
	"daysShort": [
		"P",
		"E",
		"T",
		"K",
		"N",
		"R",
		"L"
	],
	"daysStandalone": [
		"P",
		"E",
		"T",
		"K",
		"N",
		"R",
		"L"
	],
	"months": [
		"jaanuar",
		"veebruar",
		"märts",
		"aprill",
		"mai",
		"juuni",
		"juuli",
		"august",
		"september",
		"oktoober",
		"november",
		"detsember"
	],
	"monthsShort": [
		"jaan",
		"veebr",
		"märts",
		"apr",
		"mai",
		"juuni",
		"juuli",
		"aug",
		"sept",
		"okt",
		"nov",
		"dets"
	],
	"formats": {
		"E": "E",
		"yMd": "d.M.y",
		"yMEd": "E, d.M y",
		"yMMMd": "d. MMM y",
		"yMMMEd": "E, d. MMMM y",
		"hm": "h:mm a",
		"Hm": "HH:mm",
		"v": "v",
		"Md": "d.M",
		"Hmv": "HH:mm v",
		"hmv": "h:mm a v",
		"yMdHm": "d.M.y HH:mm",
		"yMdHmv": "d.M.y HH:mm v",
		"yMdhm": "d.M.y h:mm a",
		"yMdhmv": "d.M.y h:mm a v",
		"yMEdHm": "E, d.M y HH:mm",
		"yMEdHmv": "E, d.M y HH:mm v",
		"yMEdhm": "E, d.M y h:mm a",
		"yMEdhmv": "E, d.M y h:mm a v"
	},
	"date": "dd.MM.y",
	"time": "H:mm",
	"dateTimeFormat": "%2$s %1$s",
	"intervals": {
		"fallback": "%1$s–%2$s",
		"hm": {
			"a": "h:mm a – h:mm a",
			"h": "h:mm–h:mm a",
			"m": "h:mm–h:mm a"
		},
		"Hm": {
			"h": "HH.mm–HH.mm",
			"m": "HH.mm–HH.mm"
		},
		"hmv": {
			"a": "HH.mma–HH.mma v",
			"h": "h:mm–h:mm a v",
			"m": "h:mm–h:mm a v"
		},
		"Hmv": {
			"h": "HH.mm–HH.mm v",
			"m": "HH:mm–HH:mm v"
		},
		"yMMMd": {
			"d": "d.–d. MMM y",
			"m": "d. MMM–d. MMM y",
			"y": "d. MMM y–d. MMM y"
		},
		"yMMMEd": {
			"d": "E, d. MMM–E, d. MMM y",
			"m": "E, d. MMM–E, d. MMM y",
			"y": "E, d. MMM y–E, d. MMM y"
		}
	},
	"dayPeriods": {
		"am": "AM",
		"pm": "PM"
	},
	"eras": [
		"e.m.a.",
		"m.a.j."
	],
	"dateTime": "dd.MM.y H:mm",
	"h12": false
}