{
	"daysInFirstWeek": null,
	"days": [
		"siku ya yenga",
		"siku ya kwanza",
		"siku ya pili",
		"siku ya tatu",
		"siku ya ine",
		"siku ya tanu",
		"siku ya sita"
	],
	"daysShort": [
		"yen",
		"kwa",
		"pil",
		"tat",
		"ine",
		"tan",
		"sit"
	],
	"daysStandalone": [
		"yen",
		"kwa",
		"pil",
		"tat",
		"ine",
		"tan",
		"sit"
	],
	"months": [
		"mwezi ya kwanja",
		"mwezi ya pili",
		"mwezi ya tatu",
		"mwezi ya ine",
		"mwezi ya tanu",
		"mwezi ya sita",
		"mwezi ya saba",
		"mwezi ya munane",
		"mwezi ya tisa",
		"mwezi ya kumi",
		"mwezi ya kumi na moya",
		"mwezi ya kumi ya mbili"
	],
	"monthsShort": [
		"mkw",
		"mpi",
		"mtu",
		"min",
		"mtn",
		"mst",
		"msb",
		"mun",
		"mts",
		"mku",
		"mkm",
		"mkb"
	],
	"formats": {
		"E": "E",
		"yMd": "d/M/y",
		"yMEd": "E d/M/y",
		"yMMMd": "d MMM y",
		"yMMMEd": "E d MMM y",
		"hm": "h:mm a",
		"Hm": "HH:mm",
		"v": "v",
		"Md": "d/M",
		"Hmv": "HH:mm v",
		"hmv": "h:mm a v",
		"yMdHm": "d/M/y HH:mm",
		"yMdHmv": "d/M/y HH:mm v",
		"yMdhm": "d/M/y h:mm a",
		"yMdhmv": "d/M/y h:mm a v",
		"yMEdHm": "E d/M/y HH:mm",
		"yMEdHmv": "E d/M/y HH:mm v",
		"yMEdhm": "E d/M/y h:mm a",
		"yMEdhmv": "E d/M/y h:mm a v"
	},
	"date": "d MMM y",
	"time": "HH:mm",
	"dateTimeFormat": "%2$s %1$s",
	"intervals": {
		"fallback": "%1$s – %2$s",
		"hm": {
			"a": "h:mm a – h:mm a",
			"h": "h:mm–h:mm a",
			"m": "h:mm–h:mm a"
		},
		"Hm": {
			"h": "HH:mm–HH:mm",
			"m": "HH:mm–HH:mm"
		},
		"hmv": {
			"a": "h:mm a – h:mm a v",
			"h": "h:mm–h:mm a v",
			"m": "h:mm–h:mm a v"
		},
		"Hmv": {
			"h": "HH:mm–HH:mm v",
			"m": "HH:mm–HH:mm v"
		},
		"yMMMd": {
			"d": "y MMM d–d",
			"m": "y MMM d – MMM d",
			"y": "y MMM d – y MMM d"
		},
		"yMMMEd": {
			"d": "y MMM d, E – MMM d, E",
			"m": "y MMM d, E – MMM d, E",
			"y": "y MMM d, E – y MMM d, E"
		}
	},
	"dayPeriods": {
		"am": "ya asubuyi",
		"pm": "ya muchana"
	},
	"eras": [
		"mbele ya Y",
		"kisha ya Y"
	],
	"dateTime": "d MMM y HH:mm",
	"h12": false
}