{
	"daysInFirstWeek": null,
	"days": [
		"sabaat",
		"ataasinngorneq",
		"marlunngorneq",
		"pingasunngorneq",
		"sisamanngorneq",
		"tallimanngorneq",
		"arfininngorneq"
	],
	"daysShort": [
		"sab",
		"ata",
		"mar",
		"pin",
		"sis",
		"tal",
		"arf"
	],
	"daysStandalone": [
		"sab",
		"ata",
		"mar",
		"pin",
		"sis",
		"tal",
		"arf"
	],
	"months": [
		"januari",
		"februari",
		"martsi",
		"aprili",
		"maji",
		"juni",
		"juli",
		"augustusi",
		"septemberi",
		"oktoberi",
		"novemberi",
		"decemberi"
	],
	"monthsShort": [
		"jan",
		"feb",
		"mar",
		"apr",
		"maj",
		"jun",
		"jul",
		"aug",
		"sep",
		"okt",
		"nov",
		"dec"
	],
	"formats": {
		"E": "E",
		"yMd": "y-MM-dd",
		"yMEd": "E, y-MM-dd",
		"yMMMd": "MMM d, y",
		"yMMMEd": "E, MMM d, y",
		"hm": "h:mm a",
		"Hm": "HH:mm",
		"v": "v",
		"Md": "d/M",
		"Hmv": "HH:mm v",
		"hmv": "h:mm a v",
		"yMdHm": "y-MM-dd HH:mm",
		"yMdHmv": "y-MM-dd HH:mm v",
		"yMdhm": "y-MM-dd h:mm a",
		"yMdhmv": "y-MM-dd h:mm a v",
		"yMEdHm": "E, y-MM-dd HH:mm",
		"yMEdHmv": "E, y-MM-dd HH:mm v",
		"yMEdhm": "E, y-MM-dd h:mm a",
		"yMEdhmv": "E, y-MM-dd h:mm a v"
	},
	"date": "MMM dd, y",
	"time": "h:mm a",
	"dateTimeFormat": "%2$s %1$s",
	"intervals": {
		"fallback": "%1$s – %2$s",
		"hm": {
			"a": "h:mm a – h:mm a",
			"h": "h:mm–h:mm a",
			"m": "h:mm–h:mm a"
		},
		"Hm": {
			"h": "HH:mm–HH:mm",
			"m": "HH:mm–HH:mm"
		},
		"hmv": {
			"a": "h:mm a – h:mm a v",
			"h": "h:mm–h:mm a v",
			"m": "h:mm–h:mm a v"
		},
		"Hmv": {
			"h": "HH:mm–HH:mm v",
			"m": "HH:mm–HH:mm v"
		},
		"yMMMd": {
			"d": "y-MM-d – d",
			"m": "y-MM-dd – MM-d",
			"y": "y-MM-dd – y-MM-dd"
		},
		"yMMMEd": {
			"d": "E, y-MM-dd – E, y-MM-dd",
			"m": "E, y-MM-dd – E, y-MM-dd",
			"y": "E, y-MM-dd – E, y-MM-dd"
		}
	},
	"dayPeriods": {
		"am": "ulloqeqqata-tungaa",
		"pm": "ulloqeqqata-kingorna"
	},
	"eras": [
		"f.v.t.",
		"v.t."
	],
	"dateTime": "MMM dd, y h:mm a",
	"h12": true
}