{
	"daysInFirstWeek": null,
	"days": [
		"domingo",
		"segunda-feira",
		"terça-feira",
		"quarta-feira",
		"quinta-feira",
		"sexta-feira",
		"sábado"
	],
	"daysShort": [
		"dom",
		"seg",
		"ter",
		"qua",
		"qui",
		"sex",
		"sáb"
	],
	"daysStandalone": [
		"do",
		"sg",
		"te",
		"qu",
		"qi",
		"sx",
		"sb"
	],
	"months": [
		"Janeiro",
		"Fevereiro",
		"Março",
		"Abril",
		"Maio",
		"Junho",
		"Julho",
		"Agosto",
		"Setembro",
		"Outubro",
		"Novembro",
		"Dezembro"
	],
	"monthsShort": [
		"Jan",
		"Fev",
		"Mar",
		"Abr",
		"Mai",
		"Jun",
		"Jul",
		"Ago",
		"Set",
		"Out",
		"Nov",
		"Dez"
	],
	"formats": {
		"E": "E",
		"yMd": "dd/MM/y",
		"yMEd": "E, dd/MM/y",
		"yMMMd": "d/MM/y",
		"yMMMEd": "E, d/MM/y",
		"hm": "h:mm a",
		"Hm": "HH:mm",
		"v": "v",
		"Md": "d/M",
		"Hmv": "HH:mm v",
		"hmv": "h:mm a v",
		"yMdHm": "dd/MM/y, HH:mm",
		"yMdHmv": "dd/MM/y, HH:mm v",
		"yMdhm": "dd/MM/y, h:mm a",
		"yMdhmv": "dd/MM/y, h:mm a v",
		"yMEdHm": "E, dd/MM/y, HH:mm",
		"yMEdHmv": "E, dd/MM/y, HH:mm v",
		"yMEdhm": "E, dd/MM/y, h:mm a",
		"yMEdhmv": "E, dd/MM/y, h:mm a v"
	},
	"date": "dd/MM/y",
	"time": "HH:mm",
	"dateTimeFormat": "%2$s, %1$s",
	"intervals": {
		"fallback": "%1$s - %2$s",
		"hm": {
			"a": "h:mm a - h:mm a",
			"h": "h:mm - h:mm a",
			"m": "h:mm - h:mm a"
		},
		"Hm": {
			"h": "HH:mm - HH:mm",
			"m": "HH:mm - HH:mm"
		},
		"hmv": {
			"a": "h:mm a – h:mm a v",
			"h": "h:mm - h:mm a v",
			"m": "h:mm - h:mm a v"
		},
		"Hmv": {
			"h": "HH:mm - HH:mm v",
			"m": "HH:mm - HH:mm v"
		},
		"yMMMd": {
			"d": "d-d 'de' MMM 'de' y",
			"m": "d 'de' MMM - d 'de' MMM 'de' y",
			"y": "d 'de' MMM 'de' y - d 'de' MMM 'de' y"
		},
		"yMMMEd": {
			"d": "E, d 'de' MMM - E, d 'de' MMM 'de' y",
			"m": "E, d 'de' MMM - E, d 'de' MMM 'de' y",
			"y": "E, d 'de' MMM 'de' y - E, d 'de' MMM 'de' y"
		}
	},
	"dayPeriods": {
		"afternoon": "tarde",
		"am": "da manhã",
		"morning": "manhã",
		"night": "noite",
		"noon": "meio-dia",
		"pm": "da tarde"
	},
	"eras": [
		"a.E.C.",
		"E.C."
	],
	"dateTime": "dd/MM/y, HH:mm",
	"h12": false
}