{
	"daysInFirstWeek": 4,
	"weekStart": 1,
	"days": [
		"domingu",
		"llunes",
		"martes",
		"miércoles",
		"xueves",
		"vienres",
		"sábadu"
	],
	"daysShort": [
		"dom",
		"llu",
		"mar",
		"mie",
		"xue",
		"vie",
		"sab"
	],
	"daysStandalone": [
		"do",
		"ll",
		"ma",
		"mi",
		"xu",
		"vi",
		"sa"
	],
	"months": [
		"de xineru",
		"de febreru",
		"de marzu",
		"d'abril",
		"de mayu",
		"de xunu",
		"de xunetu",
		"d'agostu",
		"de setiembre",
		"d'ochobre",
		"de payares",
		"d'avientu"
	],
	"monthsShort": [
		"xin",
		"feb",
		"mar",
		"abr",
		"may",
		"xun",
		"xnt",
		"ago",
		"set",
		"och",
		"pay",
		"avi"
	],
	"formats": {
		"E": "E",
		"yMd": "d/M/y",
		"yMEd": "E, d/M/y",
		"yMMMd": "d MMM y",
		"yMMMEd": "E, d MMM y",
		"hm": "h:mm a",
		"Hm": "HH:mm",
		"v": "v",
		"Md": "d/M",
		"Hmv": "HH:mm v",
		"hmv": "h:mm a v",
		"yMdHm": "d/M/y HH:mm",
		"yMdHmv": "d/M/y HH:mm v",
		"yMdhm": "d/M/y h:mm a",
		"yMdhmv": "d/M/y h:mm a v",
		"yMEdHm": "E, d/M/y HH:mm",
		"yMEdHmv": "E, d/M/y HH:mm v",
		"yMEdhm": "E, d/M/y h:mm a",
		"yMEdhmv": "E, d/M/y h:mm a v"
	},
	"date": "d MMM y",
	"time": "HH:mm",
	"dateTimeFormat": "%2$s %1$s",
	"intervals": {
		"fallback": "%1$s – %2$s",
		"hm": {
			"a": "h:mm a – h:mm a",
			"h": "h:mm–h:mm a",
			"m": "h:mm–h:mm a"
		},
		"Hm": {
			"h": "HH:mm–HH:mm",
			"m": "HH:mm–HH:mm"
		},
		"hmv": {
			"a": "h:mm a – h:mm a v",
			"h": "h:mm–h:mm a v",
			"m": "h:mm–h:mm a v"
		},
		"Hmv": {
			"h": "HH:mm–HH:mm v",
			"m": "HH:mm–HH:mm v"
		},
		"yMMMd": {
			"d": "d – d MMM y",
			"m": "d MMM – d MMM y",
			"y": "d MMM y – d MMM y"
		},
		"yMMMEd": {
			"d": "E, d MMM – E, d MMM y",
			"m": "E, d MMM – E, d MMM y",
			"y": "E, d MMM y – E, d MMM y"
		}
	},
	"dayPeriods": {
		"am": "AM",
		"pm": "PM"
	},
	"eras": [
		"a.C.",
		"d.C."
	],
	"dateTime": "d MMM y HH:mm",
	"h12": false
}