{
	"daysInFirstWeek": null,
	"days": [
		"Sabato",
		"Jumatatu",
		"Jumanne",
		"Jumatano",
		"Arahamisi",
		"Ijumaa",
		"Jumamosi"
	],
	"daysShort": [
		"Sab",
		"Jtt",
		"Jnn",
		"Jtn",
		"Ara",
		"Iju",
		"Jmo"
	],
	"daysStandalone": [
		"Sab",
		"Jtt",
		"Jnn",
		"Jtn",
		"Ara",
		"Iju",
		"Jmo"
	],
	"months": [
		"Mweri wo kwanza",
		"Mweri wo unayeli",
		"Mweri wo uneraru",
		"Mweri wo unecheshe",
		"Mweri wo unethanu",
		"Mweri wo thanu na mocha",
		"Mweri wo saba",
		"Mweri wo nane",
		"Mweri wo tisa",
		"Mweri wo kumi",
		"Mweri wo kumi na moja",
		"Mweri wo kumi na yel'li"
	],
	"monthsShort": [
		"Kwa",
		"Una",
		"Rar",
		"Che",
		"Tha",
		"Moc",
		"Sab",
		"Nan",
		"Tis",
		"Kum",
		"Moj",
		"Yel"
	],
	"formats": {
		"E": "E",
		"yMd": "d/M/y",
		"yMEd": "E, M/d/y",
		"yMMMd": "MMM d, y",
		"yMMMEd": "E, MMM d, y",
		"hm": "h:mm a",
		"Hm": "HH:mm",
		"v": "v",
		"Md": "d/M",
		"Hmv": "HH:mm v",
		"hmv": "h:mm a v",
		"yMdHm": "d/M/y HH:mm",
		"yMdHmv": "d/M/y HH:mm v",
		"yMdhm": "d/M/y h:mm a",
		"yMdhmv": "d/M/y h:mm a v",
		"yMEdHm": "E, M/d/y HH:mm",
		"yMEdHmv": "E, M/d/y HH:mm v",
		"yMEdhm": "E, M/d/y h:mm a",
		"yMEdhmv": "E, M/d/y h:mm a v"
	},
	"date": "d MMM y",
	"time": "h:mm a",
	"dateTimeFormat": "%2$s %1$s",
	"intervals": {
		"fallback": "%1$s – %2$s",
		"hm": {
			"a": "h:mm a – h:mm a",
			"h": "h:mm–h:mm a",
			"m": "h:mm–h:mm a"
		},
		"Hm": {
			"h": "HH:mm–HH:mm",
			"m": "HH:mm–HH:mm"
		},
		"hmv": {
			"a": "h:mm a – h:mm a v",
			"h": "h:mm–h:mm a v",
			"m": "h:mm–h:mm a v"
		},
		"Hmv": {
			"h": "HH:mm–HH:mm v",
			"m": "HH:mm–HH:mm v"
		},
		"yMMMd": {
			"d": "y MMM d–d",
			"m": "y MMM d – MMM d",
			"y": "y MMM d – y MMM d"
		},
		"yMMMEd": {
			"d": "y MMM d, E – MMM d, E",
			"m": "y MMM d, E – MMM d, E",
			"y": "y MMM d, E – y MMM d, E"
		}
	},
	"dayPeriods": {
		"am": "wichishu",
		"pm": "mchochil'l"
	},
	"eras": [
		"HY",
		"YY"
	],
	"dateTime": "d MMM y h:mm a",
	"h12": true
}