{
	"daysInFirstWeek": 1,
	"weekStart": 1,
	"days": [
		"Pa Mulungu",
		"Palichimo",
		"Palichibuli",
		"Palichitatu",
		"Palichine",
		"Palichisano",
		"Pachibelushi"
	],
	"daysShort": [
		"Pa Mulungu",
		"Palichimo",
		"Palichibuli",
		"Palichitatu",
		"Palichine",
		"Palichisano",
		"Pachibelushi"
	],
	"daysStandalone": [
		"Pa Mulungu",
		"Palichimo",
		"Palichibuli",
		"Palichitatu",
		"Palichine",
		"Palichisano",
		"Pachibelushi"
	],
	"months": [
		"Januari",
		"Februari",
		"Machi",
		"Epreo",
		"Mei",
		"Juni",
		"Julai",
		"Ogasti",
		"Septemba",
		"Oktoba",
		"Novemba",
		"Disemba"
	],
	"monthsShort": [
		"Jan",
		"Feb",
		"Mac",
		"Epr",
		"Mei",
		"Jun",
		"Jul",
		"Oga",
		"Sep",
		"Okt",
		"Nov",
		"Dis"
	],
	"formats": {
		"E": "E",
		"yMd": "d/M/y",
		"yMEd": "E, M/d/y",
		"yMMMd": "d MMM y",
		"yMMMEd": "E, MMM d, y",
		"hm": "h:mm a",
		"Hm": "HH:mm",
		"v": "v",
		"Md": "M/d",
		"Hmv": "HH:mm v",
		"hmv": "h:mm a v",
		"yMdHm": "d/M/y HH:mm",
		"yMdHmv": "d/M/y HH:mm v",
		"yMdhm": "d/M/y h:mm a",
		"yMdhmv": "d/M/y h:mm a v",
		"yMEdHm": "E, M/d/y HH:mm",
		"yMEdHmv": "E, M/d/y HH:mm v",
		"yMEdhm": "E, M/d/y h:mm a",
		"yMEdhmv": "E, M/d/y h:mm a v"
	},
	"date": "d MMM y",
	"time": "h:mm a",
	"dateTimeFormat": "%2$s %1$s",
	"intervals": {
		"fallback": "%1$s – %2$s",
		"hm": {
			"a": "h:mm a – h:mm a",
			"h": "h:mm–h:mm a",
			"m": "h:mm–h:mm a"
		},
		"Hm": {
			"h": "HH:mm–HH:mm",
			"m": "HH:mm–HH:mm"
		},
		"hmv": {
			"a": "h:mm a – h:mm a v",
			"h": "h:mm–h:mm a v",
			"m": "h:mm–h:mm a v"
		},
		"Hmv": {
			"h": "HH:mm–HH:mm v",
			"m": "HH:mm–HH:mm v"
		},
		"yMMMd": {
			"d": "y MMM d–d",
			"m": "y MMM d – MMM d",
			"y": "y MMM d – y MMM d"
		},
		"yMMMEd": {
			"d": "y MMM d, E – MMM d, E",
			"m": "y MMM d, E – MMM d, E",
			"y": "y MMM d, E – y MMM d, E"
		}
	},
	"dayPeriods": {
		"am": "uluchelo",
		"pm": "akasuba"
	},
	"eras": [
		"BC",
		"AD"
	],
	"dateTime": "d MMM y h:mm a",
	"h12": true
}