{
	"daysInFirstWeek": 1,
	"weekStart": 1,
	"days": [
		"Sondag",
		"Maandag",
		"Dinsdag",
		"Woensdag",
		"Donderdag",
		"Vrydag",
		"Saterdag"
	],
	"daysShort": [
		"So",
		"Ma",
		"Di",
		"Wo",
		"Do",
		"Vr",
		"Sa"
	],
	"daysStandalone": [
		"So.",
		"Ma.",
		"Di.",
		"Wo.",
		"Do.",
		"Vr.",
		"Sa."
	],
	"months": [
		"Januarie",
		"Februarie",
		"Maart",
		"April",
		"Mei",
		"Junie",
		"Julie",
		"Augustus",
		"September",
		"Oktober",
		"November",
		"Desember"
	],
	"monthsShort": [
		"Jan",
		"Feb",
		"Mar",
		"Apr",
		"Mei",
		"Jun",
		"Jul",
		"Aug",
		"Sep",
		"Okt",
		"Nov",
		"Des"
	],
	"formats": {
		"E": "E",
		"yMd": "M/d/y",
		"yMEd": "E, d/M/y",
		"yMMMd": "d MMM y",
		"yMMMEd": "E, d MMM y",
		"hm": "h:mm a",
		"Hm": "HH:mm",
		"v": "v",
		"Md": "M/d",
		"Hmv": "HH:mm v",
		"hmv": "h:mm a v",
		"yMdHm": "M/d/y HH:mm",
		"yMdHmv": "M/d/y HH:mm v",
		"yMdhm": "M/d/y h:mm a",
		"yMdhmv": "M/d/y h:mm a v",
		"yMEdHm": "E, d/M/y HH:mm",
		"yMEdHmv": "E, d/M/y HH:mm v",
		"yMEdhm": "E, d/M/y h:mm a",
		"yMEdhmv": "E, d/M/y h:mm a v"
	},
	"date": "d MMM y",
	"time": "HH:mm",
	"dateTimeFormat": "%2$s %1$s",
	"intervals": {
		"fallback": "%1$s – %2$s",
		"hm": {
			"a": "h:mm a – h:mm a",
			"h": "h:mm–h:mm a",
			"m": "h:mm–h:mm a"
		},
		"Hm": {
			"h": "HH:mm–HH:mm",
			"m": "HH:mm–HH:mm"
		},
		"hmv": {
			"a": "h:mm a – h:mm a v",
			"h": "h:mm–h:mm a v",
			"m": "h:mm–h:mm a v"
		},
		"Hmv": {
			"h": "HH:mm–HH:mm v",
			"m": "HH:mm–HH:mm v"
		},
		"yMMMd": {
			"d": "d–d MMM, y",
			"m": "MMM d – MMM d, y",
			"y": "d MMM, y – d MMM, y"
		},
		"yMMMEd": {
			"d": "E, d MMM – E, d MMM, y",
			"m": "E, d MMM – E, d MMM, y",
			"y": "E, MMM d, y – E, MMM d, y"
		}
	},
	"dayPeriods": {
		"am": "vm.",
		"pm": "nm."
	},
	"eras": [
		"v.g.j.",
		"g.j."
	],
	"dateTime": "d MMM y HH:mm",
	"h12": false
}