{
	"daysInFirstWeek": null,
	"days": [
		"Sunday",
		"Monday",
		"Tuesday",
		"Wednesday",
		"Thursday",
		"Friday",
		"Saturday"
	],
	"daysShort": [
		"Sun",
		"Mon",
		"Tue",
		"Wed",
		"Thu",
		"Fri",
		"Sat"
	],
	"daysStandalone": [
		"Su",
		"Mo",
		"Tu",
		"We",
		"Th",
		"Fr",
		"Sa"
	],
	"months": [
		"January",
		"February",
		"March",
		"April",
		"May",
		"June",
		"July",
		"August",
		"September",
		"October",
		"November",
		"December"
	],
	"monthsShort": [
		"Jan",
		"Feb",
		"Mar",
		"Apr",
		"May",
		"Jun",
		"Jul",
		"Aug",
		"Sep",
		"Oct",
		"Nov",
		"Dec"
	],
	"formats": {
		"E": "E",
		"yMd": "dd/MM/y",
		"yMEd": "E, dd/MM/y",
		"yMMMd": "d MMM y",
		"yMMMEd": "E, d MMM y",
		"hm": "h:mm a",
		"Hm": "HH:mm",
		"v": "v",
		"Md": "dd/MM",
		"Hmv": "HH:mm v",
		"hmv": "h:mm a v",
		"yMdHm": "dd/MM/y HH:mm",
		"yMdHmv": "dd/MM/y HH:mm v",
		"yMdhm": "dd/MM/y h:mm a",
		"yMdhmv": "dd/MM/y h:mm a v",
		"yMEdHm": "E, dd/MM/y HH:mm",
		"yMEdHmv": "E, dd/MM/y HH:mm v",
		"yMEdhm": "E, dd/MM/y h:mm a",
		"yMEdhmv": "E, dd/MM/y h:mm a v"
	},
	"date": "d MMM y",
	"time": "HH:mm",
	"dateTimeFormat": "%2$s %1$s",
	"intervals": {
		"fallback": "%1$s – %2$s",
		"hm": {
			"a": "h:mm a – h:mm a",
			"h": "h:mm–h:mm a",
			"m": "h:mm–h:mm a"
		},
		"Hm": {
			"h": "HH:mm–HH:mm",
			"m": "HH:mm–HH:mm"
		},
		"hmv": {
			"a": "h:mm a – h:mm a v",
			"h": "h:mm–h:mm a v",
			"m": "h:mm–h:mm a v"
		},
		"Hmv": {
			"h": "HH:mm–HH:mm v",
			"m": "HH:mm–HH:mm v"
		},
		"yMMMd": {
			"d": "d–d MMM y",
			"m": "d MMM – d MMM y",
			"y": "d MMM y – d MMM y"
		},
		"yMMMEd": {
			"d": "E, d – E, d MMM y",
			"m": "E, d MMM – E, d MMM y",
			"y": "E, d MMM y – E, d MMM y"
		}
	},
	"dayPeriods": {
		"am": "am",
		"noon": "noon",
		"pm": "pm"
	},
	"eras": [
		"BCE",
		"CE"
	],
	"dateTime": "d MMM y HH:mm",
	"h12": false
}