{
	"daysInFirstWeek": 1,
	"weekStart": 1,
	"days": [
		"kari",
		"ntɛnɛ",
		"tarata",
		"araba",
		"alamisa",
		"juma",
		"sibiri"
	],
	"daysShort": [
		"kar",
		"ntɛ",
		"tar",
		"ara",
		"ala",
		"jum",
		"sib"
	],
	"daysStandalone": [
		"kar",
		"ntɛ",
		"tar",
		"ara",
		"ala",
		"jum",
		"sib"
	],
	"months": [
		"zanwuye",
		"feburuye",
		"marisi",
		"awirili",
		"mɛ",
		"zuwɛn",
		"zuluye",
		"uti",
		"sɛtanburu",
		"ɔkutɔburu",
		"nowanburu",
		"desanburu"
	],
	"monthsShort": [
		"zan",
		"feb",
		"mar",
		"awi",
		"mɛ",
		"zuw",
		"zul",
		"uti",
		"sɛt",
		"ɔku",
		"now",
		"des"
	],
	"formats": {
		"E": "E",
		"yMd": "d/M/y",
		"yMEd": "E d/M/y",
		"yMMMd": "d MMM y",
		"yMMMEd": "E d MMM y",
		"hm": "h:mm a",
		"Hm": "HH:mm",
		"v": "v",
		"Md": "d/M",
		"Hmv": "HH:mm v",
		"hmv": "h:mm a v",
		"yMdHm": "d/M/y HH:mm",
		"yMdHmv": "d/M/y HH:mm v",
		"yMdhm": "d/M/y h:mm a",
		"yMdhmv": "d/M/y h:mm a v",
		"yMEdHm": "E d/M/y HH:mm",
		"yMEdHmv": "E d/M/y HH:mm v",
		"yMEdhm": "E d/M/y h:mm a",
		"yMEdhmv": "E d/M/y h:mm a v"
	},
	"date": "d MMM, y",
	"time": "HH:mm",
	"dateTimeFormat": "%2$s %1$s",
	"intervals": {
		"fallback": "%1$s – %2$s",
		"hm": {
			"a": "h:mm a – h:mm a",
			"h": "h:mm–h:mm a",
			"m": "h:mm–h:mm a"
		},
		"Hm": {
			"h": "HH:mm–HH:mm",
			"m": "HH:mm–HH:mm"
		},
		"hmv": {
			"a": "h:mm a – h:mm a v",
			"h": "h:mm–h:mm a v",
			"m": "h:mm–h:mm a v"
		},
		"Hmv": {
			"h": "HH:mm–HH:mm v",
			"m": "HH:mm–HH:mm v"
		},
		"yMMMd": {
			"d": "y MMM d–d",
			"m": "y MMM d – MMM d",
			"y": "y MMM d – y MMM d"
		},
		"yMMMEd": {
			"d": "y MMM d, E – MMM d, E",
			"m": "y MMM d, E – MMM d, E",
			"y": "y MMM d, E – y MMM d, E"
		}
	},
	"dayPeriods": {
		"am": "AM",
		"pm": "PM"
	},
	"eras": [
		"J.-C. ɲɛ",
		"ni J.-C."
	],
	"dateTime": "d MMM, y HH:mm",
	"h12": false
}