{
	"daysInFirstWeek": 1,
	"weekStart": 1,
	"days": [
		"Acaada",
		"Etleeni",
		"Talaata",
		"Arbaqa",
		"Kamiisi",
		"Gumqata",
		"Sabti"
	],
	"daysShort": [
		"Aca",
		"Etl",
		"Tal",
		"Arb",
		"Kam",
		"Gum",
		"Sab"
	],
	"daysStandalone": [
		"Aca",
		"Etl",
		"Tal",
		"Arb",
		"Kam",
		"Gum",
		"Sab"
	],
	"months": [
		"Qunxa Garablu",
		"Kudo",
		"Ciggilta Kudo",
		"Agda Baxis",
		"Caxah Alsa",
		"Qasa Dirri",
		"Qado Dirri",
		"Liiqen",
		"Waysu",
		"Diteli",
		"Ximoli",
		"Kaxxa Garablu"
	],
	"monthsShort": [
		"Qun",
		"Nah",
		"Cig",
		"Agd",
		"Cax",
		"Qas",
		"Qad",
		"Leq",
		"Way",
		"Dit",
		"Xim",
		"Kax"
	],
	"formats": {
		"E": "E",
		"yMd": "y-MM-dd",
		"yMEd": "y-MM-dd, E",
		"yMMMd": "y MMM d",
		"yMMMEd": "y MMM d, E",
		"hm": "h:mm a",
		"Hm": "HH:mm",
		"v": "v",
		"Md": "MM-dd",
		"Hmv": "HH:mm v",
		"hmv": "h:mm a v",
		"yMdHm": "y-MM-dd HH:mm",
		"yMdHmv": "y-MM-dd HH:mm v",
		"yMdhm": "y-MM-dd h:mm a",
		"yMdhmv": "y-MM-dd h:mm a v",
		"yMEdHm": "y-MM-dd, E HH:mm",
		"yMEdHmv": "y-MM-dd, E HH:mm v",
		"yMEdhm": "y-MM-dd, E h:mm a",
		"yMEdhmv": "y-MM-dd, E h:mm a v"
	},
	"date": "dd-MMM-y",
	"time": "h:mm a",
	"dateTimeFormat": "%2$s %1$s",
	"intervals": {
		"fallback": "%1$s – %2$s",
		"hm": {
			"a": "h:mm a – h:mm a",
			"h": "h:mm–h:mm a",
			"m": "h:mm–h:mm a"
		},
		"Hm": {
			"h": "HH:mm–HH:mm",
			"m": "HH:mm–HH:mm"
		},
		"hmv": {
			"a": "h:mm a – h:mm a v",
			"h": "h:mm–h:mm a v",
			"m": "h:mm–h:mm a v"
		},
		"Hmv": {
			"h": "HH:mm–HH:mm v",
			"m": "HH:mm–HH:mm v"
		},
		"yMMMd": {
			"d": "y MMM d–d",
			"m": "y MMM d – MMM d",
			"y": "y MMM d – y MMM d"
		},
		"yMMMEd": {
			"d": "y MMM d, E – MMM d, E",
			"m": "y MMM d, E – MMM d, E",
			"y": "y MMM d, E – y MMM d, E"
		}
	},
	"dayPeriods": {
		"am": "saaku",
		"pm": "carra"
	},
	"eras": [
		"Yaasuusuk Duma",
		"Yaasuusuk Wadir"
	],
	"dateTime": "dd-MMM-y h:mm a",
	"h12": true
}