{
	"daysInFirstWeek": null,
	"weekStart": 1,
	"days": [
		"duminică",
		"luni",
		"marți",
		"miercuri",
		"joi",
		"vineri",
		"sâmbătă"
	],
	"daysShort": [
		"Dum",
		"Lun",
		"Mar",
		"Mie",
		"Joi",
		"Vin",
		"Sâm"
	],
	"daysStandalone": [
		"Du",
		"Lu",
		"Ma",
		"Mi",
		"Jo",
		"Vi",
		"Sâ"
	],
	"months": [
		"ianuarie",
		"februarie",
		"martie",
		"aprilie",
		"mai",
		"iunie",
		"iulie",
		"august",
		"septembrie",
		"octombrie",
		"noiembrie",
		"decembrie"
	],
	"monthsShort": [
		"ian.",
		"feb.",
		"mar.",
		"apr.",
		"mai",
		"iun.",
		"iul.",
		"aug.",
		"sept.",
		"oct.",
		"nov.",
		"dec."
	],
	"formats": {
		"E": "E",
		"yMd": "dd.MM.y",
		"yMEd": "E, dd.MM.y",
		"yMMMd": "d MMM y",
		"yMMMEd": "E, d MMM y",
		"hm": "h:mm a",
		"Hm": "HH:mm",
		"v": "v",
		"Md": "dd.MM",
		"Hmv": "HH:mm v",
		"hmv": "h:mm a v",
		"yMdHm": "dd.MM.y, HH:mm",
		"yMdHmv": "dd.MM.y, HH:mm v",
		"yMdhm": "dd.MM.y, h:mm a",
		"yMdhmv": "dd.MM.y, h:mm a v",
		"yMEdHm": "E, dd.MM.y, HH:mm",
		"yMEdHmv": "E, dd.MM.y, HH:mm v",
		"yMEdhm": "E, dd.MM.y, h:mm a",
		"yMEdhmv": "E, dd.MM.y, h:mm a v"
	},
	"date": "d MMM y",
	"time": "HH:mm",
	"dateTimeFormat": "%2$s, %1$s",
	"intervals": {
		"fallback": "%1$s - %2$s",
		"hm": {
			"a": "h:mm a - h:mm a",
			"h": "h:mm-h:mm a",
			"m": "h:mm-h:mm a"
		},
		"Hm": {
			"h": "HH:mm-HH:mm",
			"m": "HH:mm-HH:mm"
		},
		"hmv": {
			"a": "h:mm a - h:mm a v",
			"h": "h:mm-h:mm a v",
			"m": "h:mm-h:mm a v"
		},
		"Hmv": {
			"h": "HH:mm-HH:mm v",
			"m": "HH:mm-HH:mm v"
		},
		"yMMMd": {
			"d": "d-d MMM y",
			"m": "d MMM - d MMM y",
			"y": "d MMM y - d MMM y"
		},
		"yMMMEd": {
			"d": "E, d MMM - E, d MMM y",
			"m": "E, d MMM - E, d MMM y",
			"y": "E, d MMM y - E, d MMM y"
		}
	},
	"dayPeriods": {
		"am": "a.m.",
		"pm": "p.m."
	},
	"eras": [
		"î.e.n",
		"e.n."
	],
	"dateTime": "d MMM y, HH:mm",
	"h12": false
}