{
	"daysInFirstWeek": 1,
	"weekStart": 0,
	"days": [
		"Kiumia",
		"Njumatatũ",
		"Njumaine",
		"Njumatana",
		"Aramithi",
		"Njumaa",
		"Njumamothi"
	],
	"daysShort": [
		"KMA",
		"NTT",
		"NMN",
		"NMT",
		"ART",
		"NMA",
		"NMM"
	],
	"daysStandalone": [
		"KMA",
		"NTT",
		"NMN",
		"NMT",
		"ART",
		"NMA",
		"NMM"
	],
	"months": [
		"Njenuarĩ",
		"Mwere wa kerĩ",
		"Mwere wa gatatũ",
		"Mwere wa kana",
		"Mwere wa gatano",
		"Mwere wa gatandatũ",
		"Mwere wa mũgwanja",
		"Mwere wa kanana",
		"Mwere wa kenda",
		"Mwere wa ikũmi",
		"Mwere wa ikũmi na ũmwe",
		"Ndithemba"
	],
	"monthsShort": [
		"JEN",
		"WKR",
		"WGT",
		"WKN",
		"WTN",
		"WTD",
		"WMJ",
		"WNN",
		"WKD",
		"WIK",
		"WMW",
		"DIT"
	],
	"formats": {
		"E": "E",
		"yMd": "y-MM-dd",
		"yMEd": "E, M/d/y",
		"yMMMd": "y MMM d",
		"yMMMEd": "E, MMM d, y",
		"hm": "h:mm a",
		"Hm": "HH:mm",
		"v": "v",
		"Md": "M/d",
		"Hmv": "HH:mm v",
		"hmv": "h:mm a v",
		"yMdHm": "y-MM-dd HH:mm",
		"yMdHmv": "y-MM-dd HH:mm v",
		"yMdhm": "y-MM-dd h:mm a",
		"yMdhmv": "y-MM-dd h:mm a v",
		"yMEdHm": "E, M/d/y HH:mm",
		"yMEdHmv": "E, M/d/y HH:mm v",
		"yMEdhm": "E, M/d/y h:mm a",
		"yMEdhmv": "E, M/d/y h:mm a v"
	},
	"date": "d MMM y",
	"time": "h:mm a",
	"dateTimeFormat": "%2$s %1$s",
	"intervals": {
		"fallback": "%1$s – %2$s",
		"hm": {
			"a": "h:mm a – h:mm a",
			"h": "h:mm–h:mm a",
			"m": "h:mm–h:mm a"
		},
		"Hm": {
			"h": "HH:mm–HH:mm",
			"m": "HH:mm–HH:mm"
		},
		"hmv": {
			"a": "h:mm a – h:mm a v",
			"h": "h:mm–h:mm a v",
			"m": "h:mm–h:mm a v"
		},
		"Hmv": {
			"h": "HH:mm–HH:mm v",
			"m": "HH:mm–HH:mm v"
		},
		"yMMMd": {
			"d": "y MMM d–d",
			"m": "y MMM d – MMM d",
			"y": "y MMM d – y MMM d"
		},
		"yMMMEd": {
			"d": "y MMM d, E – MMM d, E",
			"m": "y MMM d, E – MMM d, E",
			"y": "y MMM d, E – y MMM d, E"
		}
	},
	"dayPeriods": {
		"am": "Kiroko",
		"pm": "Hwaĩ-inĩ"
	},
	"eras": [
		"MK",
		"TK"
	],
	"dateTime": "d MMM y h:mm a",
	"h12": true
}