{
	"daysInFirstWeek": null,
	"weekStart": 0,
	"days": [
		"domingo",
		"lunes",
		"martes",
		"miércoles",
		"jueves",
		"viernes",
		"sábado"
	],
	"daysShort": [
		"dom.",
		"lun.",
		"mar.",
		"mié.",
		"jue.",
		"vie.",
		"sáb."
	],
	"daysStandalone": [
		"DO",
		"LU",
		"MA",
		"MI",
		"JU",
		"VI",
		"SA"
	],
	"months": [
		"enero",
		"febrero",
		"marzo",
		"abril",
		"mayo",
		"junio",
		"julio",
		"agosto",
		"septiembre",
		"octubre",
		"noviembre",
		"diciembre"
	],
	"monthsShort": [
		"ene.",
		"feb.",
		"mar.",
		"abr.",
		"may.",
		"jun.",
		"jul.",
		"ago.",
		"sept.",
		"oct.",
		"nov.",
		"dic."
	],
	"formats": {
		"E": "E",
		"yMd": "MM/dd/y",
		"yMEd": "E MM/dd/y",
		"yMMMd": "d 'de' MMM 'de' y",
		"yMMMEd": "EEE, d 'de' MMMM 'de' y",
		"hm": "h:mm a",
		"Hm": "H:mm",
		"v": "v",
		"Md": "MM/dd",
		"Hmv": "H:mm v",
		"hmv": "h:mm a v",
		"yMdHm": "MM/dd/y H:mm",
		"yMdHmv": "MM/dd/y H:mm v",
		"yMdhm": "MM/dd/y h:mm a",
		"yMdhmv": "MM/dd/y h:mm a v",
		"yMEdHm": "E MM/dd/y H:mm",
		"yMEdHmv": "E MM/dd/y H:mm v",
		"yMEdhm": "E MM/dd/y h:mm a",
		"yMEdhmv": "E MM/dd/y h:mm a v"
	},
	"date": "MM/dd/y",
	"time": "h:mm a",
	"dateTimeFormat": "%2$s %1$s",
	"intervals": {
		"fallback": "%1$s a el %2$s",
		"hm": {
			"a": "h:mm a – h:mm a",
			"h": "h:mm-h:mm a",
			"m": "h:mm-h:mm a"
		},
		"Hm": {
			"h": "HH:mm-HH:mm",
			"m": "HH:mm-HH:mm"
		},
		"hmv": {
			"a": "h:mm a–h:mm a v",
			"h": "h:mm-h:mm a v",
			"m": "h:mm-h:mm a v"
		},
		"Hmv": {
			"h": "HH:mm-HH:mm v",
			"m": "HH:mm-HH:mm v"
		},
		"yMMMd": {
			"d": "d-d 'de' MMM 'de' y",
			"m": "d 'de' MMM 'al' d 'de' MMM 'de' y",
			"y": "d 'de' MMM 'de' y 'al' d 'de' MMM 'de' y"
		},
		"yMMMEd": {
			"d": "E d 'al' E d 'de' MMM 'de' y",
			"m": "E d 'de' MMM 'al' E d 'de' MMM 'de' y",
			"y": "E d 'de' MMM 'de' y 'al' E d 'de' MMM 'de' y"
		}
	},
	"dayPeriods": {
		"am": "a. m.",
		"pm": "p. m."
	},
	"eras": [
		"a. e. c.",
		"e. c."
	],
	"dateTime": "MM/dd/y h:mm a",
	"h12": true
}