{
	"daysInFirstWeek": null,
	"days": [
		"Sun",
		"Mon",
		"Tue",
		"Wed",
		"Thu",
		"Fri",
		"Sat"
	],
	"daysShort": [
		"Sun",
		"Mon",
		"Tue",
		"Wed",
		"Thu",
		"Fri",
		"Sat"
	],
	"daysStandalone": [
		"Sun",
		"Mon",
		"Tue",
		"Wed",
		"Thu",
		"Fri",
		"Sat"
	],
	"months": [
		"M01",
		"M02",
		"M03",
		"M04",
		"M05",
		"M06",
		"M07",
		"M08",
		"M09",
		"M10",
		"M11",
		"M12"
	],
	"monthsShort": [
		"M01",
		"M02",
		"M03",
		"M04",
		"M05",
		"M06",
		"M07",
		"M08",
		"M09",
		"M10",
		"M11",
		"M12"
	],
	"formats": {
		"E": "E",
		"yMd": "y-MM-dd",
		"yMEd": "y-MM-dd, E",
		"yMMMd": "y MMM d",
		"yMMMEd": "y MMM d, E",
		"hm": "h:mm a",
		"Hm": "HH:mm",
		"v": "v",
		"Md": "MM-dd",
		"Hmv": "HH:mm v",
		"hmv": "h:mm a v",
		"yMdHm": "y-MM-dd HH:mm",
		"yMdHmv": "y-MM-dd HH:mm v",
		"yMdhm": "y-MM-dd h:mm a",
		"yMdhmv": "y-MM-dd h:mm a v",
		"yMEdHm": "y-MM-dd, E HH:mm",
		"yMEdHmv": "y-MM-dd, E HH:mm v",
		"yMEdhm": "y-MM-dd, E h:mm a",
		"yMEdhmv": "y-MM-dd, E h:mm a v"
	},
	"date": "y MMM d",
	"time": "HH:mm",
	"dateTimeFormat": "%2$s %1$s",
	"intervals": {
		"fallback": "%1$s – %2$s",
		"hm": {
			"a": "h:mm a – h:mm a",
			"h": "h:mm–h:mm a",
			"m": "h:mm–h:mm a"
		},
		"Hm": {
			"h": "HH:mm–HH:mm",
			"m": "HH:mm–HH:mm"
		},
		"hmv": {
			"a": "h:mm a – h:mm a v",
			"h": "h:mm–h:mm a v",
			"m": "h:mm–h:mm a v"
		},
		"Hmv": {
			"h": "HH:mm–HH:mm v",
			"m": "HH:mm–HH:mm v"
		},
		"yMMMd": {
			"d": "y MMM d–d",
			"m": "y MMM d – MMM d",
			"y": "y MMM d – y MMM d"
		},
		"yMMMEd": {
			"d": "y MMM d, E – MMM d, E",
			"m": "y MMM d, E – MMM d, E",
			"y": "y MMM d, E – y MMM d, E"
		}
	},
	"dayPeriods": {
		"am": "AM",
		"pm": "PM"
	},
	"eras": [
		"BCE",
		"CE"
	],
	"dateTime": "y MMM d HH:mm",
	"h12": false
}