{
	"daysInFirstWeek": null,
	"weekStart": 1,
	"days": [
		"e diel",
		"e hënë",
		"e martë",
		"e mërkurë",
		"e enjte",
		"e premte",
		"e shtunë"
	],
	"daysShort": [
		"Die",
		"Hën",
		"Mar",
		"Mër",
		"Enj",
		"Pre",
		"Sht"
	],
	"daysStandalone": [
		"Die",
		"Hën",
		"Mar",
		"Mër",
		"Enj",
		"Pre",
		"Sht"
	],
	"months": [
		"janar",
		"shkurt",
		"mars",
		"prill",
		"maj",
		"qershor",
		"korrik",
		"gusht",
		"shtator",
		"tetor",
		"nëntor",
		"dhjetor"
	],
	"monthsShort": [
		"Jan",
		"Shk",
		"Mar",
		"Pri",
		"Maj",
		"Qer",
		"Kor",
		"Gsh",
		"Sht",
		"Tet",
		"Nën",
		"Dhj"
	],
	"formats": {
		"E": "E",
		"yMd": "dd/MM/y",
		"yMEd": "E, d/M/y",
		"yMMMd": "d MMM y",
		"yMMMEd": "E, d MMM y",
		"hm": "h:mm a",
		"Hm": "HH:mm",
		"v": "v",
		"Md": "d/M",
		"Hmv": "HH:mm v",
		"hmv": "h:mm a v",
		"yMdHm": "dd/MM/y HH:mm",
		"yMdHmv": "dd/MM/y HH:mm v",
		"yMdhm": "dd/MM/y h:mm a",
		"yMdhmv": "dd/MM/y h:mm a v",
		"yMEdHm": "E, d/M/y HH:mm",
		"yMEdHmv": "E, d/M/y HH:mm v",
		"yMEdhm": "E, d/M/y h:mm a",
		"yMEdhmv": "E, d/M/y h:mm a v"
	},
	"date": "dd/MM/y",
	"time": "HH:mm",
	"dateTimeFormat": "%2$s %1$s",
	"intervals": {
		"fallback": "%1$s - %2$s",
		"hm": {
			"a": "h:mm a - h:mm a",
			"h": "h:mm-h:mm a",
			"m": "h:mm-h:mm a"
		},
		"Hm": {
			"h": "HH:mm-HH:mm",
			"m": "HH:mm-HH:mm"
		},
		"hmv": {
			"a": "h:mm a - h:mm a v",
			"h": "h:mm-h:mm a v",
			"m": "h:mm-h:mm a v"
		},
		"Hmv": {
			"h": "HH:mm-HH:mm v",
			"m": "HH:mm-HH:mm v"
		},
		"yMMMd": {
			"d": "dd-dd MMM y",
			"m": "dd MMM - dd MMM y",
			"y": "dd MMM y - dd MMM y"
		},
		"yMMMEd": {
			"d": "E, dd - E, dd MMM y",
			"m": "E, dd MMM - E, dd MMM y",
			"y": "E, dd MMM y - E, dd MMM y"
		}
	},
	"dayPeriods": {
		"am": "paradite",
		"pm": "pasdite"
	},
	"eras": [
		"p.e.s",
		"e.s."
	],
	"dateTime": "dd/MM/y HH:mm",
	"h12": false
}