{
	"hu": {
		"Standard": "Normál",
		"Title": "Cím",
		"Heading (\\d+)": "Címsor $1",
		"Accent (\\d+)": "$1. jelölőszín",
		"(\\d+)% - Accent (\\d+)": "$1% - $2. jelölőszín",
		"Hyperlink": "Hivatkozás",
		"Negative": "Rossz",
		"Positive": "Jó",
		"Neutral": "Semleges",
		"Warning Text": "Figyelmeztetés",
		"Note": "Jegyzet",
		"Linked Cell": "Hivatkozott cella",
		"Total": "Összesen",
		"Calculation": "Számítás",
		"Explanatory Text": "Magyarázó szöveg",
		"Check Cell": "Ellenőrzőcella",
		"Input": "Bevitel",
		"Output": "Kimenet",
		"Decimal": "Ezres [0]",
		"Comma": "Ezres",
		"Percent": "Százalék",
		"Currency": "Pénznem",
		"Currency \\[0\\]": "Pénznem [0]"
	}
}