{
	"pt": {
		"Standard": "Normal",
		"Title": "Título",
		"Heading (\\d+)": "Título $1",
		"Accent (\\d+)": "Ênfase$1",
		"(\\d+)% - Accent (\\d+)": "$1% - Ênfase$2",
		"Hyperlink": "Hiperlink",
		"Negative": "Incorreto",
		"Positive": "Bom",
		"Neutral": "Neutra",
		"Warning Text": "Texto de Aviso",
		"Note": "Nota",
		"Linked Cell": "Célula Vinculada",
		"Total": "Total",
		"Calculation": "Cálculo",
		"Explanatory Text": "Texto Explicativo",
		"Check Cell": "Célula de Verificação",
		"Input": "Entrada",
		"Output": "Saída",
		"Decimal": "Separador de milhares [0]",
		"Comma": "Vírgula",
		"Percent": "Porcentagem",
		"Currency": "Moeda",
		"Currency \\[0\\]": "Moeda [0]"
	}
}