{
    "sk": {
        "Standard": "Normálne",
        "Title": "Titul",
        "Heading (\\d+)": "Nadpis $1",
        "Accent (\\d+)": "Zvýraznenie$1",
        "(\\d+)% - Accent (\\d+)": "$1% - Zvýraznenie$2",
        "Hyperlink": "Hypertextové prepojenie",
        "Negative": "Zlá",
        "Positive": "Dobrá",
        "Neutral": "Neutrálna",
        "Warning Text": "Text upozornenia",
        "Note": "Poznámka",
        "Linked Cell": "Prepojená bunka",
        "Total": "Spolu",
        "Calculation": "Výpočet",
        "Explanatory Text": "Vysvetľujúci text",
        "Check Cell": "Kontrolná bunka",
        "Input": "Vstup",
        "Output": "Výstup",
        "Decimal": "Čiarka [0]",
        "Comma": "Čiarka",
        "Percent": "Percentá",
        "Currency": "Mena",
        "Currency \\[0\\]": "Mena [0]"
    }
}