{
	"cs": {
		"Normal": "Normální",
		"No Spacing": "Bez mezer",
		"Heading (\\d+)": "Nadpis $1",
		"Title": "Název",
		"Subtitle": "Podtitul",
		"List ?Paragraph": "Listenabsatz",
		"Header": "Záhlaví",
		"Footer": "Zápatí",
		"Quote": "Citát",
		"Intense Quote": "Výrazný citát",
		"Normal Indent": "Normální odsazený",
		"Annotation Text": "text poznámky"
	}
}