{
	"es": {
		"Normal": "Normal",
		"No Spacing": "Sin espaciado",
		"Heading (\\d+)": "Título $1",
		"Title": "Puesto",
		"Subtitle": "Subtítulo",
		"List ?Paragraph": "Párrafo de lista",
		"Header": "Galvene",
		"Footer": "Pie de página",
		"Quote": "Cita",
		"Intense Quote": "Cita destacada",
		"Normal Indent": "Sangría normal",
		"Annotation Text": "texto de anotación"
	}
}