{
	"hu": {
		"Normal": "Normál",
		"No Spacing": "Nincs térköz",
		"Heading (\\d+)": "Címsor $1",
		"Title": "Cím",
		"Subtitle": "Alcím",
		"List ?Paragraph": "Listaszerű bekezdés",
		"Header": "Élőfej",
		"Footer": "Élőláb",
		"Quote": "Idézet",
		"Intense Quote": "Kiemelt idézet",
		"Normal Indent": "Normál behúzás",
		"Annotation Text": "széljegyzet szövege"
	}
}