{
	"it": {
		"Normal": "Normale",
		"No Spacing": "Nessuna spaziatura",
		"Heading (\\d+)": "Titolo $1",
		"Title": "Sottotitolo",
		"Subtitle": "Sottotitolo",
		"List ?Paragraph": "Parágrafo da Lista",
		"Header": "Intestazione",
		"Footer": "Piè di pagina",
		"Quote": "Citazione",
		"Intense Quote": "Paragrafo elenco",
		"Normal Indent": "Rientro normale",
		"Annotation Text": "testo annotazione"
	}
}