{
    "lv": {
        "Normal": "Parasts",
        "No Spacing": "Bez atstarpēm",
        "Heading (\\d+)": "Virsraksts $1",
        "Title": "Nosaukums",
        "Subtitle": "Apakšvirsraksts",
        "List Paragraph":"Saraksta rindkopa",
        "Header": "Galvene",
        "Footer": "Kājene",
        "Quote": "Citāts",
        "Intense Quote": "Intensīvs citāts",
        "Normal Indent": "Parasta atkāpe",
        "Annotation Text": "anotācijas teksts"
    }
}